 
 TN            5.9/    1.0 > TN 1000              <    -5.9/   -0.9   1000    
    lost :   0.05 /   0.05 (   0.05 ser    0.00 sh)  S =     6.0 =    0.0 %
 1100          0.2/    0.0 > 1100 1101            <    -0.2/    0.0   1101    
    lost :   0.00 /   0.00 (   0.00 ser    0.00 sh)  S =     0.2 =    3.0 %
 1101          0.1/    0.0 > 1101 1102            <    -0.1/    0.0   1102    
    lost :   0.00 /   0.00 (   0.00 ser    0.00 sh)  S =     0.1 =    2.0 %
 1102          0.1/    0.0 > 1102 1103            <    -0.1/    0.0   1103    
    lost :   0.00 /   0.00 (   0.00 ser    0.00 sh)  S =     0.1 =    2.2 %
 1100          0.2/    0.0 > 1100 1104            <    -0.2/    0.0   1104    
    lost :   0.00 /   0.00 (   0.00 ser    0.00 sh)  S =     0.2 =    3.1 %
 1104          0.1/    0.0 > 1104 1105            <    -0.1/    0.0   1105    
    lost :   0.00 /   0.00 (   0.00 ser    0.00 sh)  S =     0.1 =    1.9 %
 1105          0.1/    0.0 > 1105 1106            <     0.0/    0.0   1106    
    lost :   0.00 /   0.00 (   0.00 ser    0.00 sh)  S =     0.1 =    1.1 %
 1100          0.2/    0.0 > 1100 1107            <    -0.2/    0.0   1107    
    lost :   0.00 /   0.00 (   0.00 ser    0.00 sh)  S =     0.2 =    3.1 %
 1107          0.2/    0.0 > 1107 1108            <    -0.2/    0.0   1108    
    lost :   0.00 /   0.00 (   0.00 ser    0.00 sh)  S =     0.2 =    2.8 %
 1108          0.1/    0.0 > 1108 1109            <    -0.1/    0.0   1109    
    lost :   0.00 /   0.00 (   0.00 ser    0.00 sh)  S =     0.1 =    1.8 %
 1100          0.3/    0.0 > 1100 1110            <    -0.3/    0.0   1110    
    lost :   0.00 /   0.00 (   0.00 ser    0.00 sh)  S =     0.3 =    4.8 %
 1110          0.3/    0.0 > 1110 1111            <    -0.3/    0.0   1111    
    lost :   0.00 /   0.00 (   0.00 ser    0.00 sh)  S =     0.3 =    4.0 %
 1111          0.1/    0.0 > 1111 1112            <    -0.1/    0.0   1112    
    lost :   0.00 /   0.00 (   0.00 ser    0.00 sh)  S =     0.1 =    2.0 %
 1111          0.1/    0.0 > 1111 1113            <     0.0/    0.0   1113    
    lost :   0.00 /   0.00 (   0.00 ser    0.00 sh)  S =     0.1 =    1.0 %
 1112          0.1/    0.0 > 1112 1114            <    -0.1/    0.0   1114    
    lost :   0.00 /   0.00 (   0.00 ser    0.00 sh)  S =     0.1 =    1.8 %
 1100          1.1/    0.1 > 1100 1115            <    -1.1/   -0.1   1115    
    lost :   0.00 /   0.00 (   0.00 ser    0.00 sh)  S =     1.1 =   12.1 %
 1115          1.0/    0.1 > 1115 1116            <    -1.0/   -0.1   1116    
    lost :   0.00 /   0.00 (   0.00 ser    0.00 sh)  S =     1.0 =   11.5 %
 1116          0.8/    0.0 > 1116 1117            <    -0.8/    0.0   1117    
    lost :   0.00 /   0.00 (   0.00 ser    0.00 sh)  S =     0.8 =    9.0 %
 1117          0.6/    0.0 > 1117 1118            <    -0.6/    0.0   1118    
    lost :   0.00 /   0.00 (   0.00 ser    0.00 sh)  S =     0.6 =    7.4 %
 1118          0.4/    0.0 > 1118 1119            <    -0.4/    0.0   1119    
    lost :   0.00 /   0.00 (   0.00 ser    0.00 sh)  S =     0.4 =    5.1 %
 1119          0.3/    0.0 > 1119 1120            <    -0.3/    0.0   1120    
    lost :   0.00 /   0.00 (   0.00 ser    0.00 sh)  S =     0.3 =    2.9 %
 1120          0.2/    0.0 > 1120 1121            <    -0.2/    0.0   1121    
    lost :   0.00 /   0.00 (   0.00 ser    0.00 sh)  S =     0.2 =    1.8 %
 1116          0.1/    0.0 > 1116 1122            <    -0.1/    0.0   1122    
    lost :   0.00 /   0.00 (   0.00 ser    0.00 sh)  S =     0.1 =    2.0 %
 1118          0.1/    0.0 > 1118 1123            <    -0.1/    0.0   1123    
    lost :   0.00 /   0.00 (   0.00 ser    0.00 sh)  S =     0.1 =    1.3 %
 1119          0.1/    0.0 > 1119 1124            <    -0.1/    0.0   1124    
    lost :   0.00 /   0.00 (   0.00 ser    0.00 sh)  S =     0.1 =    1.3 %
 1121          0.1/    0.0 > 1121 1125            <    -0.1/    0.0   1125    
    lost :   0.00 /   0.00 (   0.00 ser    0.00 sh)  S =     0.1 =    2.0 %
 1100          1.1/    0.1 > 1100 1126            <    -1.1/   -0.1   1126    
    lost :   0.00 /   0.00 (   0.00 ser    0.00 sh)  S =     1.1 =   12.4 %
 1126          1.0/    0.0 > 1126 1127            <    -1.0/    0.0   1127    
    lost :   0.00 /   0.00 (   0.00 ser    0.00 sh)  S =     1.0 =   11.7 %
 1127          0.8/    0.0 > 1127 1128            <    -0.8/    0.0   1128    
    lost :   0.00 /   0.00 (   0.00 ser    0.00 sh)  S =     0.8 =    9.0 %
 1128          0.7/    0.0 > 1128 1129            <    -0.7/    0.0   1129    
    lost :   0.00 /   0.00 (   0.00 ser    0.00 sh)  S =     0.7 =    7.5 %
 1129          0.5/    0.0 > 1129 1130            <    -0.5/    0.0   1130    
    lost :   0.00 /   0.00 (   0.00 ser    0.00 sh)  S =     0.5 =    5.2 %
 1130          0.3/    0.0 > 1130 1131            <    -0.3/    0.0   1131    
    lost :   0.00 /   0.00 (   0.00 ser    0.00 sh)  S =     0.3 =    2.9 %
 1131          0.2/    0.0 > 1131 1132            <    -0.2/    0.0   1132    
    lost :   0.00 /   0.00 (   0.00 ser    0.00 sh)  S =     0.2 =    1.8 %
 1127          0.1/    0.0 > 1127 1133            <    -0.1/    0.0   1133    
    lost :   0.00 /   0.00 (   0.00 ser    0.00 sh)  S =     0.1 =    2.1 %
 1129          0.1/    0.0 > 1129 1134            <    -0.1/    0.0   1134    
    lost :   0.00 /   0.00 (   0.00 ser    0.00 sh)  S =     0.1 =    1.3 %
 1130          0.1/    0.0 > 1130 1135            <    -0.1/    0.0   1135    
    lost :   0.00 /   0.00 (   0.00 ser    0.00 sh)  S =     0.1 =    1.3 %
 1132          0.1/    0.0 > 1132 1136            <    -0.1/    0.0   1136    
    lost :   0.00 /   0.00 (   0.00 ser    0.00 sh)  S =     0.1 =    2.1 %
 1100          1.4/    0.1 > 1100 1137            <    -1.4/   -0.1   1137    
    lost :   0.00 /   0.00 (   0.00 ser    0.00 sh)  S =     1.4 =   15.6 %
 1137          1.3/    0.1 > 1137 1138            <    -1.3/   -0.1   1138    
    lost :   0.00 /   0.00 (   0.00 ser    0.00 sh)  S =     1.3 =   14.9 %
 1138          1.1/    0.1 > 1138 1139            <    -1.1/   -0.1   1139    
    lost :   0.00 /   0.00 (   0.00 ser    0.00 sh)  S =     1.1 =   13.1 %
 1139          1.1/    0.1 > 1139 1140            <    -1.1/   -0.1   1140    
    lost :   0.00 /   0.00 (   0.00 ser    0.00 sh)  S =     1.1 =   12.4 %
 1140          0.9/    0.0 > 1140 1141            <    -0.9/    0.0   1141    
    lost :   0.00 /   0.00 (   0.00 ser    0.00 sh)  S =     0.9 =    9.9 %
 1141          0.6/    0.0 > 1141 1142            <    -0.6/    0.0   1142    
    lost :   0.00 /   0.00 (   0.00 ser    0.00 sh)  S =     0.6 =    7.4 %
 1142          0.5/    0.0 > 1142 1143            <    -0.5/    0.0   1143    
    lost :   0.00 /   0.00 (   0.00 ser    0.00 sh)  S =     0.5 =    5.7 %
 1143          0.3/    0.0 > 1143 1144            <    -0.3/    0.0   1144    
    lost :   0.00 /   0.00 (   0.00 ser    0.00 sh)  S =     0.3 =    3.4 %
 1144          0.2/    0.0 > 1144 1145            <    -0.2/    0.0   1145    
    lost :   0.00 /   0.00 (   0.00 ser    0.00 sh)  S =     0.2 =    1.8 %
 1138          0.1/    0.0 > 1138 1146            <    -0.1/    0.0   1146    
    lost :   0.00 /   0.00 (   0.00 ser    0.00 sh)  S =     0.1 =    1.3 %
 1140          0.1/    0.0 > 1140 1147            <    -0.1/    0.0   1147    
    lost :   0.00 /   0.00 (   0.00 ser    0.00 sh)  S =     0.1 =    1.7 %
 1141          0.1/    0.0 > 1141 1148            <    -0.1/    0.0   1148    
    lost :   0.00 /   0.00 (   0.00 ser    0.00 sh)  S =     0.1 =    1.7 %
 1143          0.1/    0.0 > 1143 1149            <    -0.1/    0.0   1149    
    lost :   0.00 /   0.00 (   0.00 ser    0.00 sh)  S =     0.1 =    1.3 %
 1145          0.1/    0.0 > 1145 1150            <    -0.1/    0.0   1150    
    lost :   0.00 /   0.00 (   0.00 ser    0.00 sh)  S =     0.1 =    1.7 %
 1100          1.5/    0.5 > 1100 1151            <    -1.5/   -0.5   1151    
    lost :   0.00 /   0.00 (   0.00 ser    0.00 sh)  S =     1.5 =   17.6 %
 1151          1.4/    0.5 > 1151 1152            <    -1.4/   -0.5   1152    
    lost :   0.00 /   0.00 (   0.00 ser    0.00 sh)  S =     1.5 =   16.7 %
 1152          1.2/    0.5 > 1152 1153            <    -1.2/   -0.5   1153    
    lost :   0.00 /   0.00 (   0.00 ser    0.00 sh)  S =     1.3 =   14.7 %
 1153          1.1/    0.5 > 1153 1154            <    -1.1/   -0.5   1154    
    lost :   0.00 /   0.00 (   0.00 ser    0.00 sh)  S =     1.2 =   14.2 %
 1154          1.1/    0.4 > 1154 1155            <    -1.1/   -0.4   1155    
    lost :   0.00 /   0.00 (   0.00 ser    0.00 sh)  S =     1.2 =   13.2 %
 1155          0.9/    0.4 > 1155 1156            <    -0.9/   -0.4   1156    
    lost :   0.00 /   0.00 (   0.00 ser    0.00 sh)  S =     1.0 =   11.5 %
 1156          0.9/    0.3 > 1156 1157            <    -0.9/   -0.3   1157    
    lost :   0.00 /   0.00 (   0.00 ser    0.00 sh)  S =     1.0 =   11.0 %
 1157          0.8/    0.3 > 1157 1158            <    -0.8/   -0.3   1158    
    lost :   0.00 /   0.00 (   0.00 ser    0.00 sh)  S =     0.8 =    9.6 %
 1158          0.7/    0.3 > 1158 1159            <    -0.7/   -0.3   1159    
    lost :   0.00 /   0.00 (   0.00 ser    0.00 sh)  S =     0.8 =    8.9 %
 1159          0.6/    0.2 > 1159 1160            <    -0.6/   -0.2   1160    
    lost :   0.00 /   0.00 (   0.00 ser    0.00 sh)  S =     0.7 =    7.9 %
 1160          0.6/    0.2 > 1160 1161            <    -0.6/   -0.2   1161    
    lost :   0.00 /   0.00 (   0.00 ser    0.00 sh)  S =     0.6 =    7.4 %
 1161          0.4/    0.2 > 1161 1162            <    -0.4/   -0.2   1162    
    lost :   0.00 /   0.00 (   0.00 ser    0.00 sh)  S =     0.5 =    5.3 %
 1162          0.3/    0.1 > 1162 1163            <    -0.3/   -0.1   1163    
    lost :   0.00 /   0.00 (   0.00 ser    0.00 sh)  S =     0.4 =    4.2 %
 1163          0.2/    0.1 > 1163 1164            <    -0.2/   -0.1   1164    
    lost :   0.00 /   0.00 (   0.00 ser    0.00 sh)  S =     0.3 =    3.1 %
 1164          0.2/    0.1 > 1164 1165            <    -0.2/   -0.1   1165    
    lost :   0.00 /   0.00 (   0.00 ser    0.00 sh)  S =     0.2 =    2.0 %
 1165          0.1/    0.0 > 1165 1166            <    -0.1/    0.0   1166    
    lost :   0.00 /   0.00 (   0.00 ser    0.00 sh)  S =     0.1 =    0.8 %
 1152          0.1/    0.0 > 1152 1167            <    -0.1/    0.0   1167    
    lost :   0.00 /   0.00 (   0.00 ser    0.00 sh)  S =     0.1 =    2.2 %
 1154          0.0/    0.0 > 1154 1168            <     0.0/    0.0   1168    
    lost :   0.00 /   0.00 (   0.00 ser    0.00 sh)  S =     0.0 =    0.6 %
 1155          0.1/    0.0 > 1155 1169            <    -0.1/    0.0   1169    
    lost :   0.00 /   0.00 (   0.00 ser    0.00 sh)  S =     0.1 =    2.0 %
 1157          0.0/    0.0 > 1157 1170            <     0.0/    0.0   1170    
    lost :   0.00 /   0.00 (   0.00 ser    0.00 sh)  S =     0.1 =    1.2 %
 1159          0.0/    0.0 > 1159 1171            <     0.0/    0.0   1171    
    lost :   0.00 /   0.00 (   0.00 ser    0.00 sh)  S =     0.0 =    1.0 %
 1161          0.1/    0.0 > 1161 1172            <    -0.1/    0.0   1172    
    lost :   0.00 /   0.00 (   0.00 ser    0.00 sh)  S =     0.1 =    1.6 %
 1162          0.0/    0.0 > 1162 1173            <     0.0/    0.0   1173    
    lost :   0.00 /   0.00 (   0.00 ser    0.00 sh)  S =     0.1 =    1.3 %
 1164          0.0/    0.0 > 1164 1174            <     0.0/    0.0   1174    
    lost :   0.00 /   0.00 (   0.00 ser    0.00 sh)  S =     0.1 =    1.2 %
 1166          0.0/    0.0 > 1166 1175            <     0.0/    0.0   1175    
    lost :   0.00 /   0.00 (   0.00 ser    0.00 sh)  S =     0.0 =    1.0 %
 1000          5.9/    0.9 > TxMAIN               <    -5.9/   -0.8   1100    
    lost :   0.00 /   0.10 (   0.10 ser    0.00 sh)  S =     6.0 =   24.1 %
 117501        0.0/    0.0 > 117501	117502        <     0.0/    0.0   117502  
    lost :   0.00 /   0.00 (   0.00 ser    0.00 sh)  S =     0.0 =   20.4 %
 117502        0.0/    0.0 > 117502	117503        <     0.0/    0.0   117503  
    lost :   0.00 /   0.00 (   0.00 ser    0.00 sh)  S =     0.0 =   20.4 %
 117503        0.0/    0.0 > 117503	117504        <     0.0/    0.0   117504  
    lost :   0.00 /   0.00 (   0.00 ser    0.00 sh)  S =     0.0 =   17.7 %
 117504        0.0/    0.0 > 117504	117505        <     0.0/    0.0   117505  
    lost :   0.00 /   0.00 (   0.00 ser    0.00 sh)  S =     0.0 =   11.3 %
 117505        0.0/    0.0 > 117505	117506        <     0.0/    0.0   117506  
    lost :   0.00 /   0.00 (   0.00 ser    0.00 sh)  S =     0.0 =   11.3 %
 117506        0.0/    0.0 > 117506	117507        <     0.0/    0.0   117507  
    lost :   0.00 /   0.00 (   0.00 ser    0.00 sh)  S =     0.0 =   11.9 %
 117507        0.0/    0.0 > 117507	117508        <     0.0/    0.0   117508  
    lost :   0.00 /   0.00 (   0.00 ser    0.00 sh)  S =     0.0 =   11.9 %
 117508        0.0/    0.0 > 117508	117509        <     0.0/    0.0   117509  
    lost :   0.00 /   0.00 (   0.00 ser    0.00 sh)  S =     0.0 =   11.9 %
 117509        0.0/    0.0 > 117509	117510        <     0.0/    0.0   117510  
    lost :   0.00 /   0.00 (   0.00 ser    0.00 sh)  S =     0.0 =    5.1 %
 117503        0.0/    0.0 > 117503	117511        <     0.0/    0.0   117511  
    lost :   0.00 /   0.00 (   0.00 ser    0.00 sh)  S =     0.0 =    5.9 %
 117504        0.0/    0.0 > 117504	117512        <     0.0/    0.0   117512  
    lost :   0.00 /   0.00 (   0.00 ser    0.00 sh)  S =     0.0 =   13.6 %
 117512        0.0/    0.0 > 117512	117513        <     0.0/    0.0   117513  
    lost :   0.00 /   0.00 (   0.00 ser    0.00 sh)  S =     0.0 =   13.6 %
 117513        0.0/    0.0 > 117513	117514        <     0.0/    0.0   117514  
    lost :   0.00 /   0.00 (   0.00 ser    0.00 sh)  S =     0.0 =   13.6 %
 117514        0.0/    0.0 > 117514	117515        <     0.0/    0.0   117515  
    lost :   0.00 /   0.00 (   0.00 ser    0.00 sh)  S =     0.0 =   13.6 %
 117506        0.0/    0.0 > 117506	117516        <     0.0/    0.0   117516  
    lost :   0.00 /   0.00 (   0.00 ser    0.00 sh)  S =     0.0 =    8.9 %
 117509        0.0/    0.0 > 117509	117517        <     0.0/    0.0   117517  
    lost :   0.00 /   0.00 (   0.00 ser    0.00 sh)  S =     0.0 =   11.4 %
 117510        0.0/    0.0 > 117510	117518        <     0.0/    0.0   117518  
    lost :   0.00 /   0.00 (   0.00 ser    0.00 sh)  S =     0.0 =    7.1 %
 1175          0.0/    0.0 > TR1175               <     0.0/    0.0   117501  
    lost :   0.00 /   0.00 (   0.00 ser    0.00 sh)  S =     0.0 =    9.3 %
 
