 
          bus N0       : V= 1.0000 pu    0.00 deg          0.40 kV
          bus N1       : V= 0.9822 pu   -1.61 deg          0.39 kV
          bus N2       : V= 0.9677 pu   -1.79 deg          0.39 kV
          bus N3       : V= 0.9532 pu   -1.97 deg          0.38 kV
          bus N4       : V= 0.9398 pu   -2.13 deg          0.38 kV
          bus N5       : V= 0.9301 pu   -2.25 deg          0.37 kV
          bus N6       : V= 0.9203 pu   -2.37 deg          0.37 kV
          bus N7       : V= 0.9145 pu   -2.44 deg          0.37 kV
          bus N8       : V= 0.9087 pu   -2.51 deg          0.36 kV
          bus N9       : V= 0.9029 pu   -2.58 deg          0.36 kV
          bus N10      : V= 0.8995 pu   -2.62 deg          0.36 kV
          bus N11      : V= 0.9498 pu   -1.98 deg          0.38 kV
          bus N12      : V= 0.9257 pu   -2.18 deg          0.37 kV
          bus N13      : V= 0.9117 pu   -2.23 deg          0.36 kV
          bus N14      : V= 0.8976 pu   -2.28 deg          0.36 kV
          bus N15      : V= 0.8855 pu   -2.32 deg          0.35 kV
          bus N16      : V= 0.8821 pu   -2.50 deg          0.35 kV
          bus N17      : V= 0.8947 pu   -2.61 deg          0.36 kV
          bus N18      : V= 0.8886 pu   -2.66 deg          0.36 kV
 
