INJEC IBG22r PV110111 110111 0 0 0.00667 0.00000 0.05 0.03 Iprate_PV110111 Tg_PV110111 0.01 0.3 1.5 0.7 1.1 tau_PV110111 0.5 0.9 0.3 0.5 47 51.5 50.2 0.2 50.2 0.02 0 0 1 4 4 0.2 0.2 0.9 1.1 1 1 0 0.5 -0.002 0.002 0.5 0.5 0.25 4 prot_PV110111 support_PV110111 ;
INJEC IBG22r PV110115 110115 0 0 0.01667 0.00000 0.05 0.03 Iprate_PV110115 Tg_PV110115 0.01 0.3 1.5 0.7 1.1 tau_PV110115 0.5 0.9 0.3 0.5 47 51.5 50.2 0.2 50.2 0.02 0 0 1 4 4 0.2 0.2 0.9 1.1 1 1 0 0.5 -0.002 0.002 0.5 0.5 0.25 4 prot_PV110115 support_PV110115 ;
INJEC IBG22r PV110116 110116 0 0 0.00533 0.00000 0.05 0.03 Iprate_PV110116 Tg_PV110116 0.01 0.3 1.5 0.7 1.1 tau_PV110116 0.5 0.9 0.3 0.5 47 51.5 50.2 0.2 50.2 0.02 0 0 1 4 4 0.2 0.2 0.9 1.1 1 1 0 0.5 -0.002 0.002 0.5 0.5 0.25 4 prot_PV110116 support_PV110116 ;
INJEC IBG22r PV110117 110117 0 0 0.01333 0.00000 0.05 0.03 Iprate_PV110117 Tg_PV110117 0.01 0.3 1.5 0.7 1.1 tau_PV110117 0.5 0.9 0.3 0.5 47 51.5 50.2 0.2 50.2 0.02 0 0 1 4 4 0.2 0.2 0.9 1.1 1 1 0 0.5 -0.002 0.002 0.5 0.5 0.25 4 prot_PV110117 support_PV110117 ;
INJEC IBG22r PV110118 110118 0 0 0.00800 0.00000 0.05 0.03 Iprate_PV110118 Tg_PV110118 0.01 0.3 1.5 0.7 1.1 tau_PV110118 0.5 0.9 0.3 0.5 47 51.5 50.2 0.2 50.2 0.02 0 0 1 4 4 0.2 0.2 0.9 1.1 1 1 0 0.5 -0.002 0.002 0.5 0.5 0.25 4 prot_PV110118 support_PV110118 ;
INJEC IBG22r PV110211 110211 0 0 0.00800 0.00000 0.05 0.03 Iprate_PV110211 Tg_PV110211 0.01 0.3 1.5 0.7 1.1 tau_PV110211 0.5 0.9 0.3 0.5 47 51.5 50.2 0.2 50.2 0.02 0 0 1 4 4 0.2 0.2 0.9 1.1 1 1 0 0.5 -0.002 0.002 0.5 0.5 0.25 4 prot_PV110211 support_PV110211 ;
INJEC IBG22r PV110215 110215 0 0 0.02000 0.00000 0.05 0.03 Iprate_PV110215 Tg_PV110215 0.01 0.3 1.5 0.7 1.1 tau_PV110215 0.5 0.9 0.3 0.5 47 51.5 50.2 0.2 50.2 0.02 0 0 1 4 4 0.2 0.2 0.9 1.1 1 1 0 0.5 -0.002 0.002 0.5 0.5 0.25 4 prot_PV110215 support_PV110215 ;
INJEC IBG22r PV110216 110216 0 0 0.00640 0.00000 0.05 0.03 Iprate_PV110216 Tg_PV110216 0.01 0.3 1.5 0.7 1.1 tau_PV110216 0.5 0.9 0.3 0.5 47 51.5 50.2 0.2 50.2 0.02 0 0 1 4 4 0.2 0.2 0.9 1.1 1 1 0 0.5 -0.002 0.002 0.5 0.5 0.25 4 prot_PV110216 support_PV110216 ;
INJEC IBG22r PV110217 110217 0 0 0.01600 0.00000 0.05 0.03 Iprate_PV110217 Tg_PV110217 0.01 0.3 1.5 0.7 1.1 tau_PV110217 0.5 0.9 0.3 0.5 47 51.5 50.2 0.2 50.2 0.02 0 0 1 4 4 0.2 0.2 0.9 1.1 1 1 0 0.5 -0.002 0.002 0.5 0.5 0.25 4 prot_PV110217 support_PV110217 ;
INJEC IBG22r PV110218 110218 0 0 0.00960 0.00000 0.05 0.03 Iprate_PV110218 Tg_PV110218 0.01 0.3 1.5 0.7 1.1 tau_PV110218 0.5 0.9 0.3 0.5 47 51.5 50.2 0.2 50.2 0.02 0 0 1 4 4 0.2 0.2 0.9 1.1 1 1 0 0.5 -0.002 0.002 0.5 0.5 0.25 4 prot_PV110218 support_PV110218 ;
INJEC IBG22r PV110311 110311 0 0 0.00533 0.00000 0.05 0.03 Iprate_PV110311 Tg_PV110311 0.01 0.3 1.5 0.7 1.1 tau_PV110311 0.5 0.9 0.3 0.5 47 51.5 50.2 0.2 50.2 0.02 0 0 1 4 4 0.2 0.2 0.9 1.1 1 1 0 0.5 -0.002 0.002 0.5 0.5 0.25 4 prot_PV110311 support_PV110311 ;
INJEC IBG22r PV110315 110315 0 0 0.01333 0.00000 0.05 0.03 Iprate_PV110315 Tg_PV110315 0.01 0.3 1.5 0.7 1.1 tau_PV110315 0.5 0.9 0.3 0.5 47 51.5 50.2 0.2 50.2 0.02 0 0 1 4 4 0.2 0.2 0.9 1.1 1 1 0 0.5 -0.002 0.002 0.5 0.5 0.25 4 prot_PV110315 support_PV110315 ;
INJEC IBG22r PV110316 110316 0 0 0.00427 0.00000 0.05 0.03 Iprate_PV110316 Tg_PV110316 0.01 0.3 1.5 0.7 1.1 tau_PV110316 0.5 0.9 0.3 0.5 47 51.5 50.2 0.2 50.2 0.02 0 0 1 4 4 0.2 0.2 0.9 1.1 1 1 0 0.5 -0.002 0.002 0.5 0.5 0.25 4 prot_PV110316 support_PV110316 ;
INJEC IBG22r PV110317 110317 0 0 0.01067 0.00000 0.05 0.03 Iprate_PV110317 Tg_PV110317 0.01 0.3 1.5 0.7 1.1 tau_PV110317 0.5 0.9 0.3 0.5 47 51.5 50.2 0.2 50.2 0.02 0 0 1 4 4 0.2 0.2 0.9 1.1 1 1 0 0.5 -0.002 0.002 0.5 0.5 0.25 4 prot_PV110317 support_PV110317 ;
INJEC IBG22r PV110318 110318 0 0 0.00640 0.00000 0.05 0.03 Iprate_PV110318 Tg_PV110318 0.01 0.3 1.5 0.7 1.1 tau_PV110318 0.5 0.9 0.3 0.5 47 51.5 50.2 0.2 50.2 0.02 0 0 1 4 4 0.2 0.2 0.9 1.1 1 1 0 0.5 -0.002 0.002 0.5 0.5 0.25 4 prot_PV110318 support_PV110318 ;
INJEC IBG22r PV110411 110411 0 0 0.00533 0.00000 0.05 0.03 Iprate_PV110411 Tg_PV110411 0.01 0.3 1.5 0.7 1.1 tau_PV110411 0.5 0.9 0.3 0.5 47 51.5 50.2 0.2 50.2 0.02 0 0 1 4 4 0.2 0.2 0.9 1.1 1 1 0 0.5 -0.002 0.002 0.5 0.5 0.25 4 prot_PV110411 support_PV110411 ;
INJEC IBG22r PV110415 110415 0 0 0.01333 0.00000 0.05 0.03 Iprate_PV110415 Tg_PV110415 0.01 0.3 1.5 0.7 1.1 tau_PV110415 0.5 0.9 0.3 0.5 47 51.5 50.2 0.2 50.2 0.02 0 0 1 4 4 0.2 0.2 0.9 1.1 1 1 0 0.5 -0.002 0.002 0.5 0.5 0.25 4 prot_PV110415 support_PV110415 ;
INJEC IBG22r PV110416 110416 0 0 0.00427 0.00000 0.05 0.03 Iprate_PV110416 Tg_PV110416 0.01 0.3 1.5 0.7 1.1 tau_PV110416 0.5 0.9 0.3 0.5 47 51.5 50.2 0.2 50.2 0.02 0 0 1 4 4 0.2 0.2 0.9 1.1 1 1 0 0.5 -0.002 0.002 0.5 0.5 0.25 4 prot_PV110416 support_PV110416 ;
INJEC IBG22r PV110417 110417 0 0 0.01067 0.00000 0.05 0.03 Iprate_PV110417 Tg_PV110417 0.01 0.3 1.5 0.7 1.1 tau_PV110417 0.5 0.9 0.3 0.5 47 51.5 50.2 0.2 50.2 0.02 0 0 1 4 4 0.2 0.2 0.9 1.1 1 1 0 0.5 -0.002 0.002 0.5 0.5 0.25 4 prot_PV110417 support_PV110417 ;
INJEC IBG22r PV110418 110418 0 0 0.00640 0.00000 0.05 0.03 Iprate_PV110418 Tg_PV110418 0.01 0.3 1.5 0.7 1.1 tau_PV110418 0.5 0.9 0.3 0.5 47 51.5 50.2 0.2 50.2 0.02 0 0 1 4 4 0.2 0.2 0.9 1.1 1 1 0 0.5 -0.002 0.002 0.5 0.5 0.25 4 prot_PV110418 support_PV110418 ;
INJEC IBG22r PV110511 110511 0 0 0.00533 0.00000 0.05 0.03 Iprate_PV110511 Tg_PV110511 0.01 0.3 1.5 0.7 1.1 tau_PV110511 0.5 0.9 0.3 0.5 47 51.5 50.2 0.2 50.2 0.02 0 0 1 4 4 0.2 0.2 0.9 1.1 1 1 0 0.5 -0.002 0.002 0.5 0.5 0.25 4 prot_PV110511 support_PV110511 ;
INJEC IBG22r PV110515 110515 0 0 0.01333 0.00000 0.05 0.03 Iprate_PV110515 Tg_PV110515 0.01 0.3 1.5 0.7 1.1 tau_PV110515 0.5 0.9 0.3 0.5 47 51.5 50.2 0.2 50.2 0.02 0 0 1 4 4 0.2 0.2 0.9 1.1 1 1 0 0.5 -0.002 0.002 0.5 0.5 0.25 4 prot_PV110515 support_PV110515 ;
INJEC IBG22r PV110516 110516 0 0 0.00427 0.00000 0.05 0.03 Iprate_PV110516 Tg_PV110516 0.01 0.3 1.5 0.7 1.1 tau_PV110516 0.5 0.9 0.3 0.5 47 51.5 50.2 0.2 50.2 0.02 0 0 1 4 4 0.2 0.2 0.9 1.1 1 1 0 0.5 -0.002 0.002 0.5 0.5 0.25 4 prot_PV110516 support_PV110516 ;
INJEC IBG22r PV110517 110517 0 0 0.01067 0.00000 0.05 0.03 Iprate_PV110517 Tg_PV110517 0.01 0.3 1.5 0.7 1.1 tau_PV110517 0.5 0.9 0.3 0.5 47 51.5 50.2 0.2 50.2 0.02 0 0 1 4 4 0.2 0.2 0.9 1.1 1 1 0 0.5 -0.002 0.002 0.5 0.5 0.25 4 prot_PV110517 support_PV110517 ;
INJEC IBG22r PV110518 110518 0 0 0.00640 0.00000 0.05 0.03 Iprate_PV110518 Tg_PV110518 0.01 0.3 1.5 0.7 1.1 tau_PV110518 0.5 0.9 0.3 0.5 47 51.5 50.2 0.2 50.2 0.02 0 0 1 4 4 0.2 0.2 0.9 1.1 1 1 0 0.5 -0.002 0.002 0.5 0.5 0.25 4 prot_PV110518 support_PV110518 ;
INJEC IBG22r PV110611 110611 0 0 0.00533 0.00000 0.05 0.03 Iprate_PV110611 Tg_PV110611 0.01 0.3 1.5 0.7 1.1 tau_PV110611 0.5 0.9 0.3 0.5 47 51.5 50.2 0.2 50.2 0.02 0 0 1 4 4 0.2 0.2 0.9 1.1 1 1 0 0.5 -0.002 0.002 0.5 0.5 0.25 4 prot_PV110611 support_PV110611 ;
INJEC IBG22r PV110615 110615 0 0 0.01333 0.00000 0.05 0.03 Iprate_PV110615 Tg_PV110615 0.01 0.3 1.5 0.7 1.1 tau_PV110615 0.5 0.9 0.3 0.5 47 51.5 50.2 0.2 50.2 0.02 0 0 1 4 4 0.2 0.2 0.9 1.1 1 1 0 0.5 -0.002 0.002 0.5 0.5 0.25 4 prot_PV110615 support_PV110615 ;
INJEC IBG22r PV110616 110616 0 0 0.00427 0.00000 0.05 0.03 Iprate_PV110616 Tg_PV110616 0.01 0.3 1.5 0.7 1.1 tau_PV110616 0.5 0.9 0.3 0.5 47 51.5 50.2 0.2 50.2 0.02 0 0 1 4 4 0.2 0.2 0.9 1.1 1 1 0 0.5 -0.002 0.002 0.5 0.5 0.25 4 prot_PV110616 support_PV110616 ;
INJEC IBG22r PV110617 110617 0 0 0.01067 0.00000 0.05 0.03 Iprate_PV110617 Tg_PV110617 0.01 0.3 1.5 0.7 1.1 tau_PV110617 0.5 0.9 0.3 0.5 47 51.5 50.2 0.2 50.2 0.02 0 0 1 4 4 0.2 0.2 0.9 1.1 1 1 0 0.5 -0.002 0.002 0.5 0.5 0.25 4 prot_PV110617 support_PV110617 ;
INJEC IBG22r PV110618 110618 0 0 0.00640 0.00000 0.05 0.03 Iprate_PV110618 Tg_PV110618 0.01 0.3 1.5 0.7 1.1 tau_PV110618 0.5 0.9 0.3 0.5 47 51.5 50.2 0.2 50.2 0.02 0 0 1 4 4 0.2 0.2 0.9 1.1 1 1 0 0.5 -0.002 0.002 0.5 0.5 0.25 4 prot_PV110618 support_PV110618 ;
INJEC IBG22r PV110711 110711 0 0 0.00533 0.00000 0.05 0.03 Iprate_PV110711 Tg_PV110711 0.01 0.3 1.5 0.7 1.1 tau_PV110711 0.5 0.9 0.3 0.5 47 51.5 50.2 0.2 50.2 0.02 0 0 1 4 4 0.2 0.2 0.9 1.1 1 1 0 0.5 -0.002 0.002 0.5 0.5 0.25 4 prot_PV110711 support_PV110711 ;
INJEC IBG22r PV110715 110715 0 0 0.01333 0.00000 0.05 0.03 Iprate_PV110715 Tg_PV110715 0.01 0.3 1.5 0.7 1.1 tau_PV110715 0.5 0.9 0.3 0.5 47 51.5 50.2 0.2 50.2 0.02 0 0 1 4 4 0.2 0.2 0.9 1.1 1 1 0 0.5 -0.002 0.002 0.5 0.5 0.25 4 prot_PV110715 support_PV110715 ;
INJEC IBG22r PV110716 110716 0 0 0.00427 0.00000 0.05 0.03 Iprate_PV110716 Tg_PV110716 0.01 0.3 1.5 0.7 1.1 tau_PV110716 0.5 0.9 0.3 0.5 47 51.5 50.2 0.2 50.2 0.02 0 0 1 4 4 0.2 0.2 0.9 1.1 1 1 0 0.5 -0.002 0.002 0.5 0.5 0.25 4 prot_PV110716 support_PV110716 ;
INJEC IBG22r PV110717 110717 0 0 0.01067 0.00000 0.05 0.03 Iprate_PV110717 Tg_PV110717 0.01 0.3 1.5 0.7 1.1 tau_PV110717 0.5 0.9 0.3 0.5 47 51.5 50.2 0.2 50.2 0.02 0 0 1 4 4 0.2 0.2 0.9 1.1 1 1 0 0.5 -0.002 0.002 0.5 0.5 0.25 4 prot_PV110717 support_PV110717 ;
INJEC IBG22r PV110718 110718 0 0 0.00640 0.00000 0.05 0.03 Iprate_PV110718 Tg_PV110718 0.01 0.3 1.5 0.7 1.1 tau_PV110718 0.5 0.9 0.3 0.5 47 51.5 50.2 0.2 50.2 0.02 0 0 1 4 4 0.2 0.2 0.9 1.1 1 1 0 0.5 -0.002 0.002 0.5 0.5 0.25 4 prot_PV110718 support_PV110718 ;
INJEC IBG22r PV110811 110811 0 0 0.00533 0.00000 0.05 0.03 Iprate_PV110811 Tg_PV110811 0.01 0.3 1.5 0.7 1.1 tau_PV110811 0.5 0.9 0.3 0.5 47 51.5 50.2 0.2 50.2 0.02 0 0 1 4 4 0.2 0.2 0.9 1.1 1 1 0 0.5 -0.002 0.002 0.5 0.5 0.25 4 prot_PV110811 support_PV110811 ;
INJEC IBG22r PV110815 110815 0 0 0.01333 0.00000 0.05 0.03 Iprate_PV110815 Tg_PV110815 0.01 0.3 1.5 0.7 1.1 tau_PV110815 0.5 0.9 0.3 0.5 47 51.5 50.2 0.2 50.2 0.02 0 0 1 4 4 0.2 0.2 0.9 1.1 1 1 0 0.5 -0.002 0.002 0.5 0.5 0.25 4 prot_PV110815 support_PV110815 ;
INJEC IBG22r PV110816 110816 0 0 0.00427 0.00000 0.05 0.03 Iprate_PV110816 Tg_PV110816 0.01 0.3 1.5 0.7 1.1 tau_PV110816 0.5 0.9 0.3 0.5 47 51.5 50.2 0.2 50.2 0.02 0 0 1 4 4 0.2 0.2 0.9 1.1 1 1 0 0.5 -0.002 0.002 0.5 0.5 0.25 4 prot_PV110816 support_PV110816 ;
INJEC IBG22r PV110817 110817 0 0 0.01067 0.00000 0.05 0.03 Iprate_PV110817 Tg_PV110817 0.01 0.3 1.5 0.7 1.1 tau_PV110817 0.5 0.9 0.3 0.5 47 51.5 50.2 0.2 50.2 0.02 0 0 1 4 4 0.2 0.2 0.9 1.1 1 1 0 0.5 -0.002 0.002 0.5 0.5 0.25 4 prot_PV110817 support_PV110817 ;
INJEC IBG22r PV110818 110818 0 0 0.00640 0.00000 0.05 0.03 Iprate_PV110818 Tg_PV110818 0.01 0.3 1.5 0.7 1.1 tau_PV110818 0.5 0.9 0.3 0.5 47 51.5 50.2 0.2 50.2 0.02 0 0 1 4 4 0.2 0.2 0.9 1.1 1 1 0 0.5 -0.002 0.002 0.5 0.5 0.25 4 prot_PV110818 support_PV110818 ;
INJEC IBG22r PV110911 110911 0 0 0.00533 0.00000 0.05 0.03 Iprate_PV110911 Tg_PV110911 0.01 0.3 1.5 0.7 1.1 tau_PV110911 0.5 0.9 0.3 0.5 47 51.5 50.2 0.2 50.2 0.02 0 0 1 4 4 0.2 0.2 0.9 1.1 1 1 0 0.5 -0.002 0.002 0.5 0.5 0.25 4 prot_PV110911 support_PV110911 ;
INJEC IBG22r PV110915 110915 0 0 0.01333 0.00000 0.05 0.03 Iprate_PV110915 Tg_PV110915 0.01 0.3 1.5 0.7 1.1 tau_PV110915 0.5 0.9 0.3 0.5 47 51.5 50.2 0.2 50.2 0.02 0 0 1 4 4 0.2 0.2 0.9 1.1 1 1 0 0.5 -0.002 0.002 0.5 0.5 0.25 4 prot_PV110915 support_PV110915 ;
INJEC IBG22r PV110916 110916 0 0 0.00427 0.00000 0.05 0.03 Iprate_PV110916 Tg_PV110916 0.01 0.3 1.5 0.7 1.1 tau_PV110916 0.5 0.9 0.3 0.5 47 51.5 50.2 0.2 50.2 0.02 0 0 1 4 4 0.2 0.2 0.9 1.1 1 1 0 0.5 -0.002 0.002 0.5 0.5 0.25 4 prot_PV110916 support_PV110916 ;
INJEC IBG22r PV110917 110917 0 0 0.01067 0.00000 0.05 0.03 Iprate_PV110917 Tg_PV110917 0.01 0.3 1.5 0.7 1.1 tau_PV110917 0.5 0.9 0.3 0.5 47 51.5 50.2 0.2 50.2 0.02 0 0 1 4 4 0.2 0.2 0.9 1.1 1 1 0 0.5 -0.002 0.002 0.5 0.5 0.25 4 prot_PV110917 support_PV110917 ;
INJEC IBG22r PV110918 110918 0 0 0.00640 0.00000 0.05 0.03 Iprate_PV110918 Tg_PV110918 0.01 0.3 1.5 0.7 1.1 tau_PV110918 0.5 0.9 0.3 0.5 47 51.5 50.2 0.2 50.2 0.02 0 0 1 4 4 0.2 0.2 0.9 1.1 1 1 0 0.5 -0.002 0.002 0.5 0.5 0.25 4 prot_PV110918 support_PV110918 ;
INJEC IBG22r PV111011 111011 0 0 0.00533 0.00000 0.05 0.03 Iprate_PV111011 Tg_PV111011 0.01 0.3 1.5 0.7 1.1 tau_PV111011 0.5 0.9 0.3 0.5 47 51.5 50.2 0.2 50.2 0.02 0 0 1 4 4 0.2 0.2 0.9 1.1 1 1 0 0.5 -0.002 0.002 0.5 0.5 0.25 4 prot_PV111011 support_PV111011 ;
INJEC IBG22r PV111015 111015 0 0 0.01333 0.00000 0.05 0.03 Iprate_PV111015 Tg_PV111015 0.01 0.3 1.5 0.7 1.1 tau_PV111015 0.5 0.9 0.3 0.5 47 51.5 50.2 0.2 50.2 0.02 0 0 1 4 4 0.2 0.2 0.9 1.1 1 1 0 0.5 -0.002 0.002 0.5 0.5 0.25 4 prot_PV111015 support_PV111015 ;
INJEC IBG22r PV111016 111016 0 0 0.00427 0.00000 0.05 0.03 Iprate_PV111016 Tg_PV111016 0.01 0.3 1.5 0.7 1.1 tau_PV111016 0.5 0.9 0.3 0.5 47 51.5 50.2 0.2 50.2 0.02 0 0 1 4 4 0.2 0.2 0.9 1.1 1 1 0 0.5 -0.002 0.002 0.5 0.5 0.25 4 prot_PV111016 support_PV111016 ;
INJEC IBG22r PV111017 111017 0 0 0.01067 0.00000 0.05 0.03 Iprate_PV111017 Tg_PV111017 0.01 0.3 1.5 0.7 1.1 tau_PV111017 0.5 0.9 0.3 0.5 47 51.5 50.2 0.2 50.2 0.02 0 0 1 4 4 0.2 0.2 0.9 1.1 1 1 0 0.5 -0.002 0.002 0.5 0.5 0.25 4 prot_PV111017 support_PV111017 ;
INJEC IBG22r PV111018 111018 0 0 0.00640 0.00000 0.05 0.03 Iprate_PV111018 Tg_PV111018 0.01 0.3 1.5 0.7 1.1 tau_PV111018 0.5 0.9 0.3 0.5 47 51.5 50.2 0.2 50.2 0.02 0 0 1 4 4 0.2 0.2 0.9 1.1 1 1 0 0.5 -0.002 0.002 0.5 0.5 0.25 4 prot_PV111018 support_PV111018 ;
INJEC IBG22r PV111111 111111 0 0 0.00533 0.00000 0.05 0.03 Iprate_PV111111 Tg_PV111111 0.01 0.3 1.5 0.7 1.1 tau_PV111111 0.5 0.9 0.3 0.5 47 51.5 50.2 0.2 50.2 0.02 0 0 1 4 4 0.2 0.2 0.9 1.1 1 1 0 0.5 -0.002 0.002 0.5 0.5 0.25 4 prot_PV111111 support_PV111111 ;
INJEC IBG22r PV111115 111115 0 0 0.01333 0.00000 0.05 0.03 Iprate_PV111115 Tg_PV111115 0.01 0.3 1.5 0.7 1.1 tau_PV111115 0.5 0.9 0.3 0.5 47 51.5 50.2 0.2 50.2 0.02 0 0 1 4 4 0.2 0.2 0.9 1.1 1 1 0 0.5 -0.002 0.002 0.5 0.5 0.25 4 prot_PV111115 support_PV111115 ;
INJEC IBG22r PV111116 111116 0 0 0.00427 0.00000 0.05 0.03 Iprate_PV111116 Tg_PV111116 0.01 0.3 1.5 0.7 1.1 tau_PV111116 0.5 0.9 0.3 0.5 47 51.5 50.2 0.2 50.2 0.02 0 0 1 4 4 0.2 0.2 0.9 1.1 1 1 0 0.5 -0.002 0.002 0.5 0.5 0.25 4 prot_PV111116 support_PV111116 ;
INJEC IBG22r PV111117 111117 0 0 0.01067 0.00000 0.05 0.03 Iprate_PV111117 Tg_PV111117 0.01 0.3 1.5 0.7 1.1 tau_PV111117 0.5 0.9 0.3 0.5 47 51.5 50.2 0.2 50.2 0.02 0 0 1 4 4 0.2 0.2 0.9 1.1 1 1 0 0.5 -0.002 0.002 0.5 0.5 0.25 4 prot_PV111117 support_PV111117 ;
INJEC IBG22r PV111118 111118 0 0 0.00640 0.00000 0.05 0.03 Iprate_PV111118 Tg_PV111118 0.01 0.3 1.5 0.7 1.1 tau_PV111118 0.5 0.9 0.3 0.5 47 51.5 50.2 0.2 50.2 0.02 0 0 1 4 4 0.2 0.2 0.9 1.1 1 1 0 0.5 -0.002 0.002 0.5 0.5 0.25 4 prot_PV111118 support_PV111118 ;
INJEC IBG22r PV111211 111211 0 0 0.00533 0.00000 0.05 0.03 Iprate_PV111211 Tg_PV111211 0.01 0.3 1.5 0.7 1.1 tau_PV111211 0.5 0.9 0.3 0.5 47 51.5 50.2 0.2 50.2 0.02 0 0 1 4 4 0.2 0.2 0.9 1.1 1 1 0 0.5 -0.002 0.002 0.5 0.5 0.25 4 prot_PV111211 support_PV111211 ;
INJEC IBG22r PV111215 111215 0 0 0.01333 0.00000 0.05 0.03 Iprate_PV111215 Tg_PV111215 0.01 0.3 1.5 0.7 1.1 tau_PV111215 0.5 0.9 0.3 0.5 47 51.5 50.2 0.2 50.2 0.02 0 0 1 4 4 0.2 0.2 0.9 1.1 1 1 0 0.5 -0.002 0.002 0.5 0.5 0.25 4 prot_PV111215 support_PV111215 ;
INJEC IBG22r PV111216 111216 0 0 0.00427 0.00000 0.05 0.03 Iprate_PV111216 Tg_PV111216 0.01 0.3 1.5 0.7 1.1 tau_PV111216 0.5 0.9 0.3 0.5 47 51.5 50.2 0.2 50.2 0.02 0 0 1 4 4 0.2 0.2 0.9 1.1 1 1 0 0.5 -0.002 0.002 0.5 0.5 0.25 4 prot_PV111216 support_PV111216 ;
INJEC IBG22r PV111217 111217 0 0 0.01067 0.00000 0.05 0.03 Iprate_PV111217 Tg_PV111217 0.01 0.3 1.5 0.7 1.1 tau_PV111217 0.5 0.9 0.3 0.5 47 51.5 50.2 0.2 50.2 0.02 0 0 1 4 4 0.2 0.2 0.9 1.1 1 1 0 0.5 -0.002 0.002 0.5 0.5 0.25 4 prot_PV111217 support_PV111217 ;
INJEC IBG22r PV111218 111218 0 0 0.00640 0.00000 0.05 0.03 Iprate_PV111218 Tg_PV111218 0.01 0.3 1.5 0.7 1.1 tau_PV111218 0.5 0.9 0.3 0.5 47 51.5 50.2 0.2 50.2 0.02 0 0 1 4 4 0.2 0.2 0.9 1.1 1 1 0 0.5 -0.002 0.002 0.5 0.5 0.25 4 prot_PV111218 support_PV111218 ;
INJEC IBG22r PV111311 111311 0 0 0.00533 0.00000 0.05 0.03 Iprate_PV111311 Tg_PV111311 0.01 0.3 1.5 0.7 1.1 tau_PV111311 0.5 0.9 0.3 0.5 47 51.5 50.2 0.2 50.2 0.02 0 0 1 4 4 0.2 0.2 0.9 1.1 1 1 0 0.5 -0.002 0.002 0.5 0.5 0.25 4 prot_PV111311 support_PV111311 ;
INJEC IBG22r PV111315 111315 0 0 0.01333 0.00000 0.05 0.03 Iprate_PV111315 Tg_PV111315 0.01 0.3 1.5 0.7 1.1 tau_PV111315 0.5 0.9 0.3 0.5 47 51.5 50.2 0.2 50.2 0.02 0 0 1 4 4 0.2 0.2 0.9 1.1 1 1 0 0.5 -0.002 0.002 0.5 0.5 0.25 4 prot_PV111315 support_PV111315 ;
INJEC IBG22r PV111316 111316 0 0 0.00427 0.00000 0.05 0.03 Iprate_PV111316 Tg_PV111316 0.01 0.3 1.5 0.7 1.1 tau_PV111316 0.5 0.9 0.3 0.5 47 51.5 50.2 0.2 50.2 0.02 0 0 1 4 4 0.2 0.2 0.9 1.1 1 1 0 0.5 -0.002 0.002 0.5 0.5 0.25 4 prot_PV111316 support_PV111316 ;
INJEC IBG22r PV111317 111317 0 0 0.01067 0.00000 0.05 0.03 Iprate_PV111317 Tg_PV111317 0.01 0.3 1.5 0.7 1.1 tau_PV111317 0.5 0.9 0.3 0.5 47 51.5 50.2 0.2 50.2 0.02 0 0 1 4 4 0.2 0.2 0.9 1.1 1 1 0 0.5 -0.002 0.002 0.5 0.5 0.25 4 prot_PV111317 support_PV111317 ;
INJEC IBG22r PV111318 111318 0 0 0.00640 0.00000 0.05 0.03 Iprate_PV111318 Tg_PV111318 0.01 0.3 1.5 0.7 1.1 tau_PV111318 0.5 0.9 0.3 0.5 47 51.5 50.2 0.2 50.2 0.02 0 0 1 4 4 0.2 0.2 0.9 1.1 1 1 0 0.5 -0.002 0.002 0.5 0.5 0.25 4 prot_PV111318 support_PV111318 ;
INJEC IBG22r PV111411 111411 0 0 0.00533 0.00000 0.05 0.03 Iprate_PV111411 Tg_PV111411 0.01 0.3 1.5 0.7 1.1 tau_PV111411 0.5 0.9 0.3 0.5 47 51.5 50.2 0.2 50.2 0.02 0 0 1 4 4 0.2 0.2 0.9 1.1 1 1 0 0.5 -0.002 0.002 0.5 0.5 0.25 4 prot_PV111411 support_PV111411 ;
INJEC IBG22r PV111415 111415 0 0 0.01333 0.00000 0.05 0.03 Iprate_PV111415 Tg_PV111415 0.01 0.3 1.5 0.7 1.1 tau_PV111415 0.5 0.9 0.3 0.5 47 51.5 50.2 0.2 50.2 0.02 0 0 1 4 4 0.2 0.2 0.9 1.1 1 1 0 0.5 -0.002 0.002 0.5 0.5 0.25 4 prot_PV111415 support_PV111415 ;
INJEC IBG22r PV111416 111416 0 0 0.00427 0.00000 0.05 0.03 Iprate_PV111416 Tg_PV111416 0.01 0.3 1.5 0.7 1.1 tau_PV111416 0.5 0.9 0.3 0.5 47 51.5 50.2 0.2 50.2 0.02 0 0 1 4 4 0.2 0.2 0.9 1.1 1 1 0 0.5 -0.002 0.002 0.5 0.5 0.25 4 prot_PV111416 support_PV111416 ;
INJEC IBG22r PV111417 111417 0 0 0.01067 0.00000 0.05 0.03 Iprate_PV111417 Tg_PV111417 0.01 0.3 1.5 0.7 1.1 tau_PV111417 0.5 0.9 0.3 0.5 47 51.5 50.2 0.2 50.2 0.02 0 0 1 4 4 0.2 0.2 0.9 1.1 1 1 0 0.5 -0.002 0.002 0.5 0.5 0.25 4 prot_PV111417 support_PV111417 ;
INJEC IBG22r PV111418 111418 0 0 0.00640 0.00000 0.05 0.03 Iprate_PV111418 Tg_PV111418 0.01 0.3 1.5 0.7 1.1 tau_PV111418 0.5 0.9 0.3 0.5 47 51.5 50.2 0.2 50.2 0.02 0 0 1 4 4 0.2 0.2 0.9 1.1 1 1 0 0.5 -0.002 0.002 0.5 0.5 0.25 4 prot_PV111418 support_PV111418 ;
INJEC IBG22r PV111511 111511 0 0 0.00533 0.00000 0.05 0.03 Iprate_PV111511 Tg_PV111511 0.01 0.3 1.5 0.7 1.1 tau_PV111511 0.5 0.9 0.3 0.5 47 51.5 50.2 0.2 50.2 0.02 0 0 1 4 4 0.2 0.2 0.9 1.1 1 1 0 0.5 -0.002 0.002 0.5 0.5 0.25 4 prot_PV111511 support_PV111511 ;
INJEC IBG22r PV111515 111515 0 0 0.01333 0.00000 0.05 0.03 Iprate_PV111515 Tg_PV111515 0.01 0.3 1.5 0.7 1.1 tau_PV111515 0.5 0.9 0.3 0.5 47 51.5 50.2 0.2 50.2 0.02 0 0 1 4 4 0.2 0.2 0.9 1.1 1 1 0 0.5 -0.002 0.002 0.5 0.5 0.25 4 prot_PV111515 support_PV111515 ;
INJEC IBG22r PV111516 111516 0 0 0.00427 0.00000 0.05 0.03 Iprate_PV111516 Tg_PV111516 0.01 0.3 1.5 0.7 1.1 tau_PV111516 0.5 0.9 0.3 0.5 47 51.5 50.2 0.2 50.2 0.02 0 0 1 4 4 0.2 0.2 0.9 1.1 1 1 0 0.5 -0.002 0.002 0.5 0.5 0.25 4 prot_PV111516 support_PV111516 ;
INJEC IBG22r PV111517 111517 0 0 0.01067 0.00000 0.05 0.03 Iprate_PV111517 Tg_PV111517 0.01 0.3 1.5 0.7 1.1 tau_PV111517 0.5 0.9 0.3 0.5 47 51.5 50.2 0.2 50.2 0.02 0 0 1 4 4 0.2 0.2 0.9 1.1 1 1 0 0.5 -0.002 0.002 0.5 0.5 0.25 4 prot_PV111517 support_PV111517 ;
INJEC IBG22r PV111518 111518 0 0 0.00640 0.00000 0.05 0.03 Iprate_PV111518 Tg_PV111518 0.01 0.3 1.5 0.7 1.1 tau_PV111518 0.5 0.9 0.3 0.5 47 51.5 50.2 0.2 50.2 0.02 0 0 1 4 4 0.2 0.2 0.9 1.1 1 1 0 0.5 -0.002 0.002 0.5 0.5 0.25 4 prot_PV111518 support_PV111518 ;
INJEC IBG22r PV111611 111611 0 0 0.00533 0.00000 0.05 0.03 Iprate_PV111611 Tg_PV111611 0.01 0.3 1.5 0.7 1.1 tau_PV111611 0.5 0.9 0.3 0.5 47 51.5 50.2 0.2 50.2 0.02 0 0 1 4 4 0.2 0.2 0.9 1.1 1 1 0 0.5 -0.002 0.002 0.5 0.5 0.25 4 prot_PV111611 support_PV111611 ;
INJEC IBG22r PV111615 111615 0 0 0.01333 0.00000 0.05 0.03 Iprate_PV111615 Tg_PV111615 0.01 0.3 1.5 0.7 1.1 tau_PV111615 0.5 0.9 0.3 0.5 47 51.5 50.2 0.2 50.2 0.02 0 0 1 4 4 0.2 0.2 0.9 1.1 1 1 0 0.5 -0.002 0.002 0.5 0.5 0.25 4 prot_PV111615 support_PV111615 ;
INJEC IBG22r PV111616 111616 0 0 0.00427 0.00000 0.05 0.03 Iprate_PV111616 Tg_PV111616 0.01 0.3 1.5 0.7 1.1 tau_PV111616 0.5 0.9 0.3 0.5 47 51.5 50.2 0.2 50.2 0.02 0 0 1 4 4 0.2 0.2 0.9 1.1 1 1 0 0.5 -0.002 0.002 0.5 0.5 0.25 4 prot_PV111616 support_PV111616 ;
INJEC IBG22r PV111617 111617 0 0 0.01067 0.00000 0.05 0.03 Iprate_PV111617 Tg_PV111617 0.01 0.3 1.5 0.7 1.1 tau_PV111617 0.5 0.9 0.3 0.5 47 51.5 50.2 0.2 50.2 0.02 0 0 1 4 4 0.2 0.2 0.9 1.1 1 1 0 0.5 -0.002 0.002 0.5 0.5 0.25 4 prot_PV111617 support_PV111617 ;
INJEC IBG22r PV111618 111618 0 0 0.00640 0.00000 0.05 0.03 Iprate_PV111618 Tg_PV111618 0.01 0.3 1.5 0.7 1.1 tau_PV111618 0.5 0.9 0.3 0.5 47 51.5 50.2 0.2 50.2 0.02 0 0 1 4 4 0.2 0.2 0.9 1.1 1 1 0 0.5 -0.002 0.002 0.5 0.5 0.25 4 prot_PV111618 support_PV111618 ;
INJEC IBG22r PV111711 111711 0 0 0.00400 0.00000 0.05 0.03 Iprate_PV111711 Tg_PV111711 0.01 0.3 1.5 0.7 1.1 tau_PV111711 0.5 0.9 0.3 0.5 47 51.5 50.2 0.2 50.2 0.02 0 0 1 4 4 0.2 0.2 0.9 1.1 1 1 0 0.5 -0.002 0.002 0.5 0.5 0.25 4 prot_PV111711 support_PV111711 ;
INJEC IBG22r PV111715 111715 0 0 0.01000 0.00000 0.05 0.03 Iprate_PV111715 Tg_PV111715 0.01 0.3 1.5 0.7 1.1 tau_PV111715 0.5 0.9 0.3 0.5 47 51.5 50.2 0.2 50.2 0.02 0 0 1 4 4 0.2 0.2 0.9 1.1 1 1 0 0.5 -0.002 0.002 0.5 0.5 0.25 4 prot_PV111715 support_PV111715 ;
INJEC IBG22r PV111716 111716 0 0 0.00320 0.00000 0.05 0.03 Iprate_PV111716 Tg_PV111716 0.01 0.3 1.5 0.7 1.1 tau_PV111716 0.5 0.9 0.3 0.5 47 51.5 50.2 0.2 50.2 0.02 0 0 1 4 4 0.2 0.2 0.9 1.1 1 1 0 0.5 -0.002 0.002 0.5 0.5 0.25 4 prot_PV111716 support_PV111716 ;
INJEC IBG22r PV111717 111717 0 0 0.00800 0.00000 0.05 0.03 Iprate_PV111717 Tg_PV111717 0.01 0.3 1.5 0.7 1.1 tau_PV111717 0.5 0.9 0.3 0.5 47 51.5 50.2 0.2 50.2 0.02 0 0 1 4 4 0.2 0.2 0.9 1.1 1 1 0 0.5 -0.002 0.002 0.5 0.5 0.25 4 prot_PV111717 support_PV111717 ;
INJEC IBG22r PV111718 111718 0 0 0.00480 0.00000 0.05 0.03 Iprate_PV111718 Tg_PV111718 0.01 0.3 1.5 0.7 1.1 tau_PV111718 0.5 0.9 0.3 0.5 47 51.5 50.2 0.2 50.2 0.02 0 0 1 4 4 0.2 0.2 0.9 1.1 1 1 0 0.5 -0.002 0.002 0.5 0.5 0.25 4 prot_PV111718 support_PV111718 ;
INJEC IBG22r PV111811 111811 0 0 0.00400 0.00000 0.05 0.03 Iprate_PV111811 Tg_PV111811 0.01 0.3 1.5 0.7 1.1 tau_PV111811 0.5 0.9 0.3 0.5 47 51.5 50.2 0.2 50.2 0.02 0 0 1 4 4 0.2 0.2 0.9 1.1 1 1 0 0.5 -0.002 0.002 0.5 0.5 0.25 4 prot_PV111811 support_PV111811 ;
INJEC IBG22r PV111815 111815 0 0 0.01000 0.00000 0.05 0.03 Iprate_PV111815 Tg_PV111815 0.01 0.3 1.5 0.7 1.1 tau_PV111815 0.5 0.9 0.3 0.5 47 51.5 50.2 0.2 50.2 0.02 0 0 1 4 4 0.2 0.2 0.9 1.1 1 1 0 0.5 -0.002 0.002 0.5 0.5 0.25 4 prot_PV111815 support_PV111815 ;
INJEC IBG22r PV111816 111816 0 0 0.00320 0.00000 0.05 0.03 Iprate_PV111816 Tg_PV111816 0.01 0.3 1.5 0.7 1.1 tau_PV111816 0.5 0.9 0.3 0.5 47 51.5 50.2 0.2 50.2 0.02 0 0 1 4 4 0.2 0.2 0.9 1.1 1 1 0 0.5 -0.002 0.002 0.5 0.5 0.25 4 prot_PV111816 support_PV111816 ;
INJEC IBG22r PV111817 111817 0 0 0.00800 0.00000 0.05 0.03 Iprate_PV111817 Tg_PV111817 0.01 0.3 1.5 0.7 1.1 tau_PV111817 0.5 0.9 0.3 0.5 47 51.5 50.2 0.2 50.2 0.02 0 0 1 4 4 0.2 0.2 0.9 1.1 1 1 0 0.5 -0.002 0.002 0.5 0.5 0.25 4 prot_PV111817 support_PV111817 ;
INJEC IBG22r PV111818 111818 0 0 0.00480 0.00000 0.05 0.03 Iprate_PV111818 Tg_PV111818 0.01 0.3 1.5 0.7 1.1 tau_PV111818 0.5 0.9 0.3 0.5 47 51.5 50.2 0.2 50.2 0.02 0 0 1 4 4 0.2 0.2 0.9 1.1 1 1 0 0.5 -0.002 0.002 0.5 0.5 0.25 4 prot_PV111818 support_PV111818 ;
INJEC IBG22r PV111911 111911 0 0 0.00400 0.00000 0.05 0.03 Iprate_PV111911 Tg_PV111911 0.01 0.3 1.5 0.7 1.1 tau_PV111911 0.5 0.9 0.3 0.5 47 51.5 50.2 0.2 50.2 0.02 0 0 1 4 4 0.2 0.2 0.9 1.1 1 1 0 0.5 -0.002 0.002 0.5 0.5 0.25 4 prot_PV111911 support_PV111911 ;
INJEC IBG22r PV111915 111915 0 0 0.01000 0.00000 0.05 0.03 Iprate_PV111915 Tg_PV111915 0.01 0.3 1.5 0.7 1.1 tau_PV111915 0.5 0.9 0.3 0.5 47 51.5 50.2 0.2 50.2 0.02 0 0 1 4 4 0.2 0.2 0.9 1.1 1 1 0 0.5 -0.002 0.002 0.5 0.5 0.25 4 prot_PV111915 support_PV111915 ;
INJEC IBG22r PV111916 111916 0 0 0.00320 0.00000 0.05 0.03 Iprate_PV111916 Tg_PV111916 0.01 0.3 1.5 0.7 1.1 tau_PV111916 0.5 0.9 0.3 0.5 47 51.5 50.2 0.2 50.2 0.02 0 0 1 4 4 0.2 0.2 0.9 1.1 1 1 0 0.5 -0.002 0.002 0.5 0.5 0.25 4 prot_PV111916 support_PV111916 ;
INJEC IBG22r PV111917 111917 0 0 0.00800 0.00000 0.05 0.03 Iprate_PV111917 Tg_PV111917 0.01 0.3 1.5 0.7 1.1 tau_PV111917 0.5 0.9 0.3 0.5 47 51.5 50.2 0.2 50.2 0.02 0 0 1 4 4 0.2 0.2 0.9 1.1 1 1 0 0.5 -0.002 0.002 0.5 0.5 0.25 4 prot_PV111917 support_PV111917 ;
INJEC IBG22r PV111918 111918 0 0 0.00480 0.00000 0.05 0.03 Iprate_PV111918 Tg_PV111918 0.01 0.3 1.5 0.7 1.1 tau_PV111918 0.5 0.9 0.3 0.5 47 51.5 50.2 0.2 50.2 0.02 0 0 1 4 4 0.2 0.2 0.9 1.1 1 1 0 0.5 -0.002 0.002 0.5 0.5 0.25 4 prot_PV111918 support_PV111918 ;
INJEC IBG22r PV112011 112011 0 0 0.00400 0.00000 0.05 0.03 Iprate_PV112011 Tg_PV112011 0.01 0.3 1.5 0.7 1.1 tau_PV112011 0.5 0.9 0.3 0.5 47 51.5 50.2 0.2 50.2 0.02 0 0 1 4 4 0.2 0.2 0.9 1.1 1 1 0 0.5 -0.002 0.002 0.5 0.5 0.25 4 prot_PV112011 support_PV112011 ;
INJEC IBG22r PV112015 112015 0 0 0.01000 0.00000 0.05 0.03 Iprate_PV112015 Tg_PV112015 0.01 0.3 1.5 0.7 1.1 tau_PV112015 0.5 0.9 0.3 0.5 47 51.5 50.2 0.2 50.2 0.02 0 0 1 4 4 0.2 0.2 0.9 1.1 1 1 0 0.5 -0.002 0.002 0.5 0.5 0.25 4 prot_PV112015 support_PV112015 ;
INJEC IBG22r PV112016 112016 0 0 0.00320 0.00000 0.05 0.03 Iprate_PV112016 Tg_PV112016 0.01 0.3 1.5 0.7 1.1 tau_PV112016 0.5 0.9 0.3 0.5 47 51.5 50.2 0.2 50.2 0.02 0 0 1 4 4 0.2 0.2 0.9 1.1 1 1 0 0.5 -0.002 0.002 0.5 0.5 0.25 4 prot_PV112016 support_PV112016 ;
INJEC IBG22r PV112017 112017 0 0 0.00800 0.00000 0.05 0.03 Iprate_PV112017 Tg_PV112017 0.01 0.3 1.5 0.7 1.1 tau_PV112017 0.5 0.9 0.3 0.5 47 51.5 50.2 0.2 50.2 0.02 0 0 1 4 4 0.2 0.2 0.9 1.1 1 1 0 0.5 -0.002 0.002 0.5 0.5 0.25 4 prot_PV112017 support_PV112017 ;
INJEC IBG22r PV112018 112018 0 0 0.00480 0.00000 0.05 0.03 Iprate_PV112018 Tg_PV112018 0.01 0.3 1.5 0.7 1.1 tau_PV112018 0.5 0.9 0.3 0.5 47 51.5 50.2 0.2 50.2 0.02 0 0 1 4 4 0.2 0.2 0.9 1.1 1 1 0 0.5 -0.002 0.002 0.5 0.5 0.25 4 prot_PV112018 support_PV112018 ;
INJEC IBG22r PV112111 112111 0 0 0.00400 0.00000 0.05 0.03 Iprate_PV112111 Tg_PV112111 0.01 0.3 1.5 0.7 1.1 tau_PV112111 0.5 0.9 0.3 0.5 47 51.5 50.2 0.2 50.2 0.02 0 0 1 4 4 0.2 0.2 0.9 1.1 1 1 0 0.5 -0.002 0.002 0.5 0.5 0.25 4 prot_PV112111 support_PV112111 ;
INJEC IBG22r PV112115 112115 0 0 0.01000 0.00000 0.05 0.03 Iprate_PV112115 Tg_PV112115 0.01 0.3 1.5 0.7 1.1 tau_PV112115 0.5 0.9 0.3 0.5 47 51.5 50.2 0.2 50.2 0.02 0 0 1 4 4 0.2 0.2 0.9 1.1 1 1 0 0.5 -0.002 0.002 0.5 0.5 0.25 4 prot_PV112115 support_PV112115 ;
INJEC IBG22r PV112116 112116 0 0 0.00320 0.00000 0.05 0.03 Iprate_PV112116 Tg_PV112116 0.01 0.3 1.5 0.7 1.1 tau_PV112116 0.5 0.9 0.3 0.5 47 51.5 50.2 0.2 50.2 0.02 0 0 1 4 4 0.2 0.2 0.9 1.1 1 1 0 0.5 -0.002 0.002 0.5 0.5 0.25 4 prot_PV112116 support_PV112116 ;
INJEC IBG22r PV112117 112117 0 0 0.00800 0.00000 0.05 0.03 Iprate_PV112117 Tg_PV112117 0.01 0.3 1.5 0.7 1.1 tau_PV112117 0.5 0.9 0.3 0.5 47 51.5 50.2 0.2 50.2 0.02 0 0 1 4 4 0.2 0.2 0.9 1.1 1 1 0 0.5 -0.002 0.002 0.5 0.5 0.25 4 prot_PV112117 support_PV112117 ;
INJEC IBG22r PV112118 112118 0 0 0.00480 0.00000 0.05 0.03 Iprate_PV112118 Tg_PV112118 0.01 0.3 1.5 0.7 1.1 tau_PV112118 0.5 0.9 0.3 0.5 47 51.5 50.2 0.2 50.2 0.02 0 0 1 4 4 0.2 0.2 0.9 1.1 1 1 0 0.5 -0.002 0.002 0.5 0.5 0.25 4 prot_PV112118 support_PV112118 ;
INJEC IBG22r PV112211 112211 0 0 0.00400 0.00000 0.05 0.03 Iprate_PV112211 Tg_PV112211 0.01 0.3 1.5 0.7 1.1 tau_PV112211 0.5 0.9 0.3 0.5 47 51.5 50.2 0.2 50.2 0.02 0 0 1 4 4 0.2 0.2 0.9 1.1 1 1 0 0.5 -0.002 0.002 0.5 0.5 0.25 4 prot_PV112211 support_PV112211 ;
INJEC IBG22r PV112215 112215 0 0 0.01000 0.00000 0.05 0.03 Iprate_PV112215 Tg_PV112215 0.01 0.3 1.5 0.7 1.1 tau_PV112215 0.5 0.9 0.3 0.5 47 51.5 50.2 0.2 50.2 0.02 0 0 1 4 4 0.2 0.2 0.9 1.1 1 1 0 0.5 -0.002 0.002 0.5 0.5 0.25 4 prot_PV112215 support_PV112215 ;
INJEC IBG22r PV112216 112216 0 0 0.00320 0.00000 0.05 0.03 Iprate_PV112216 Tg_PV112216 0.01 0.3 1.5 0.7 1.1 tau_PV112216 0.5 0.9 0.3 0.5 47 51.5 50.2 0.2 50.2 0.02 0 0 1 4 4 0.2 0.2 0.9 1.1 1 1 0 0.5 -0.002 0.002 0.5 0.5 0.25 4 prot_PV112216 support_PV112216 ;
INJEC IBG22r PV112217 112217 0 0 0.00800 0.00000 0.05 0.03 Iprate_PV112217 Tg_PV112217 0.01 0.3 1.5 0.7 1.1 tau_PV112217 0.5 0.9 0.3 0.5 47 51.5 50.2 0.2 50.2 0.02 0 0 1 4 4 0.2 0.2 0.9 1.1 1 1 0 0.5 -0.002 0.002 0.5 0.5 0.25 4 prot_PV112217 support_PV112217 ;
INJEC IBG22r PV112218 112218 0 0 0.00480 0.00000 0.05 0.03 Iprate_PV112218 Tg_PV112218 0.01 0.3 1.5 0.7 1.1 tau_PV112218 0.5 0.9 0.3 0.5 47 51.5 50.2 0.2 50.2 0.02 0 0 1 4 4 0.2 0.2 0.9 1.1 1 1 0 0.5 -0.002 0.002 0.5 0.5 0.25 4 prot_PV112218 support_PV112218 ;
INJEC IBG22r PV112311 112311 0 0 0.00400 0.00000 0.05 0.03 Iprate_PV112311 Tg_PV112311 0.01 0.3 1.5 0.7 1.1 tau_PV112311 0.5 0.9 0.3 0.5 47 51.5 50.2 0.2 50.2 0.02 0 0 1 4 4 0.2 0.2 0.9 1.1 1 1 0 0.5 -0.002 0.002 0.5 0.5 0.25 4 prot_PV112311 support_PV112311 ;
INJEC IBG22r PV112315 112315 0 0 0.01000 0.00000 0.05 0.03 Iprate_PV112315 Tg_PV112315 0.01 0.3 1.5 0.7 1.1 tau_PV112315 0.5 0.9 0.3 0.5 47 51.5 50.2 0.2 50.2 0.02 0 0 1 4 4 0.2 0.2 0.9 1.1 1 1 0 0.5 -0.002 0.002 0.5 0.5 0.25 4 prot_PV112315 support_PV112315 ;
INJEC IBG22r PV112316 112316 0 0 0.00320 0.00000 0.05 0.03 Iprate_PV112316 Tg_PV112316 0.01 0.3 1.5 0.7 1.1 tau_PV112316 0.5 0.9 0.3 0.5 47 51.5 50.2 0.2 50.2 0.02 0 0 1 4 4 0.2 0.2 0.9 1.1 1 1 0 0.5 -0.002 0.002 0.5 0.5 0.25 4 prot_PV112316 support_PV112316 ;
INJEC IBG22r PV112317 112317 0 0 0.00800 0.00000 0.05 0.03 Iprate_PV112317 Tg_PV112317 0.01 0.3 1.5 0.7 1.1 tau_PV112317 0.5 0.9 0.3 0.5 47 51.5 50.2 0.2 50.2 0.02 0 0 1 4 4 0.2 0.2 0.9 1.1 1 1 0 0.5 -0.002 0.002 0.5 0.5 0.25 4 prot_PV112317 support_PV112317 ;
INJEC IBG22r PV112318 112318 0 0 0.00480 0.00000 0.05 0.03 Iprate_PV112318 Tg_PV112318 0.01 0.3 1.5 0.7 1.1 tau_PV112318 0.5 0.9 0.3 0.5 47 51.5 50.2 0.2 50.2 0.02 0 0 1 4 4 0.2 0.2 0.9 1.1 1 1 0 0.5 -0.002 0.002 0.5 0.5 0.25 4 prot_PV112318 support_PV112318 ;
INJEC IBG22r PV112411 112411 0 0 0.00400 0.00000 0.05 0.03 Iprate_PV112411 Tg_PV112411 0.01 0.3 1.5 0.7 1.1 tau_PV112411 0.5 0.9 0.3 0.5 47 51.5 50.2 0.2 50.2 0.02 0 0 1 4 4 0.2 0.2 0.9 1.1 1 1 0 0.5 -0.002 0.002 0.5 0.5 0.25 4 prot_PV112411 support_PV112411 ;
INJEC IBG22r PV112415 112415 0 0 0.01000 0.00000 0.05 0.03 Iprate_PV112415 Tg_PV112415 0.01 0.3 1.5 0.7 1.1 tau_PV112415 0.5 0.9 0.3 0.5 47 51.5 50.2 0.2 50.2 0.02 0 0 1 4 4 0.2 0.2 0.9 1.1 1 1 0 0.5 -0.002 0.002 0.5 0.5 0.25 4 prot_PV112415 support_PV112415 ;
INJEC IBG22r PV112416 112416 0 0 0.00320 0.00000 0.05 0.03 Iprate_PV112416 Tg_PV112416 0.01 0.3 1.5 0.7 1.1 tau_PV112416 0.5 0.9 0.3 0.5 47 51.5 50.2 0.2 50.2 0.02 0 0 1 4 4 0.2 0.2 0.9 1.1 1 1 0 0.5 -0.002 0.002 0.5 0.5 0.25 4 prot_PV112416 support_PV112416 ;
INJEC IBG22r PV112417 112417 0 0 0.00800 0.00000 0.05 0.03 Iprate_PV112417 Tg_PV112417 0.01 0.3 1.5 0.7 1.1 tau_PV112417 0.5 0.9 0.3 0.5 47 51.5 50.2 0.2 50.2 0.02 0 0 1 4 4 0.2 0.2 0.9 1.1 1 1 0 0.5 -0.002 0.002 0.5 0.5 0.25 4 prot_PV112417 support_PV112417 ;
INJEC IBG22r PV112418 112418 0 0 0.00480 0.00000 0.05 0.03 Iprate_PV112418 Tg_PV112418 0.01 0.3 1.5 0.7 1.1 tau_PV112418 0.5 0.9 0.3 0.5 47 51.5 50.2 0.2 50.2 0.02 0 0 1 4 4 0.2 0.2 0.9 1.1 1 1 0 0.5 -0.002 0.002 0.5 0.5 0.25 4 prot_PV112418 support_PV112418 ;
INJEC IBG22r PV112511 112511 0 0 0.00400 0.00000 0.05 0.03 Iprate_PV112511 Tg_PV112511 0.01 0.3 1.5 0.7 1.1 tau_PV112511 0.5 0.9 0.3 0.5 47 51.5 50.2 0.2 50.2 0.02 0 0 1 4 4 0.2 0.2 0.9 1.1 1 1 0 0.5 -0.002 0.002 0.5 0.5 0.25 4 prot_PV112511 support_PV112511 ;
INJEC IBG22r PV112515 112515 0 0 0.01000 0.00000 0.05 0.03 Iprate_PV112515 Tg_PV112515 0.01 0.3 1.5 0.7 1.1 tau_PV112515 0.5 0.9 0.3 0.5 47 51.5 50.2 0.2 50.2 0.02 0 0 1 4 4 0.2 0.2 0.9 1.1 1 1 0 0.5 -0.002 0.002 0.5 0.5 0.25 4 prot_PV112515 support_PV112515 ;
INJEC IBG22r PV112516 112516 0 0 0.00320 0.00000 0.05 0.03 Iprate_PV112516 Tg_PV112516 0.01 0.3 1.5 0.7 1.1 tau_PV112516 0.5 0.9 0.3 0.5 47 51.5 50.2 0.2 50.2 0.02 0 0 1 4 4 0.2 0.2 0.9 1.1 1 1 0 0.5 -0.002 0.002 0.5 0.5 0.25 4 prot_PV112516 support_PV112516 ;
INJEC IBG22r PV112517 112517 0 0 0.00800 0.00000 0.05 0.03 Iprate_PV112517 Tg_PV112517 0.01 0.3 1.5 0.7 1.1 tau_PV112517 0.5 0.9 0.3 0.5 47 51.5 50.2 0.2 50.2 0.02 0 0 1 4 4 0.2 0.2 0.9 1.1 1 1 0 0.5 -0.002 0.002 0.5 0.5 0.25 4 prot_PV112517 support_PV112517 ;
INJEC IBG22r PV112518 112518 0 0 0.00480 0.00000 0.05 0.03 Iprate_PV112518 Tg_PV112518 0.01 0.3 1.5 0.7 1.1 tau_PV112518 0.5 0.9 0.3 0.5 47 51.5 50.2 0.2 50.2 0.02 0 0 1 4 4 0.2 0.2 0.9 1.1 1 1 0 0.5 -0.002 0.002 0.5 0.5 0.25 4 prot_PV112518 support_PV112518 ;
INJEC IBG22r PV112611 112611 0 0 0.00400 0.00000 0.05 0.03 Iprate_PV112611 Tg_PV112611 0.01 0.3 1.5 0.7 1.1 tau_PV112611 0.5 0.9 0.3 0.5 47 51.5 50.2 0.2 50.2 0.02 0 0 1 4 4 0.2 0.2 0.9 1.1 1 1 0 0.5 -0.002 0.002 0.5 0.5 0.25 4 prot_PV112611 support_PV112611 ;
INJEC IBG22r PV112615 112615 0 0 0.01000 0.00000 0.05 0.03 Iprate_PV112615 Tg_PV112615 0.01 0.3 1.5 0.7 1.1 tau_PV112615 0.5 0.9 0.3 0.5 47 51.5 50.2 0.2 50.2 0.02 0 0 1 4 4 0.2 0.2 0.9 1.1 1 1 0 0.5 -0.002 0.002 0.5 0.5 0.25 4 prot_PV112615 support_PV112615 ;
INJEC IBG22r PV112616 112616 0 0 0.00320 0.00000 0.05 0.03 Iprate_PV112616 Tg_PV112616 0.01 0.3 1.5 0.7 1.1 tau_PV112616 0.5 0.9 0.3 0.5 47 51.5 50.2 0.2 50.2 0.02 0 0 1 4 4 0.2 0.2 0.9 1.1 1 1 0 0.5 -0.002 0.002 0.5 0.5 0.25 4 prot_PV112616 support_PV112616 ;
INJEC IBG22r PV112617 112617 0 0 0.00800 0.00000 0.05 0.03 Iprate_PV112617 Tg_PV112617 0.01 0.3 1.5 0.7 1.1 tau_PV112617 0.5 0.9 0.3 0.5 47 51.5 50.2 0.2 50.2 0.02 0 0 1 4 4 0.2 0.2 0.9 1.1 1 1 0 0.5 -0.002 0.002 0.5 0.5 0.25 4 prot_PV112617 support_PV112617 ;
INJEC IBG22r PV112618 112618 0 0 0.00480 0.00000 0.05 0.03 Iprate_PV112618 Tg_PV112618 0.01 0.3 1.5 0.7 1.1 tau_PV112618 0.5 0.9 0.3 0.5 47 51.5 50.2 0.2 50.2 0.02 0 0 1 4 4 0.2 0.2 0.9 1.1 1 1 0 0.5 -0.002 0.002 0.5 0.5 0.25 4 prot_PV112618 support_PV112618 ;
INJEC IBG22r PV112711 112711 0 0 0.00400 0.00000 0.05 0.03 Iprate_PV112711 Tg_PV112711 0.01 0.3 1.5 0.7 1.1 tau_PV112711 0.5 0.9 0.3 0.5 47 51.5 50.2 0.2 50.2 0.02 0 0 1 4 4 0.2 0.2 0.9 1.1 1 1 0 0.5 -0.002 0.002 0.5 0.5 0.25 4 prot_PV112711 support_PV112711 ;
INJEC IBG22r PV112715 112715 0 0 0.01000 0.00000 0.05 0.03 Iprate_PV112715 Tg_PV112715 0.01 0.3 1.5 0.7 1.1 tau_PV112715 0.5 0.9 0.3 0.5 47 51.5 50.2 0.2 50.2 0.02 0 0 1 4 4 0.2 0.2 0.9 1.1 1 1 0 0.5 -0.002 0.002 0.5 0.5 0.25 4 prot_PV112715 support_PV112715 ;
INJEC IBG22r PV112716 112716 0 0 0.00320 0.00000 0.05 0.03 Iprate_PV112716 Tg_PV112716 0.01 0.3 1.5 0.7 1.1 tau_PV112716 0.5 0.9 0.3 0.5 47 51.5 50.2 0.2 50.2 0.02 0 0 1 4 4 0.2 0.2 0.9 1.1 1 1 0 0.5 -0.002 0.002 0.5 0.5 0.25 4 prot_PV112716 support_PV112716 ;
INJEC IBG22r PV112717 112717 0 0 0.00800 0.00000 0.05 0.03 Iprate_PV112717 Tg_PV112717 0.01 0.3 1.5 0.7 1.1 tau_PV112717 0.5 0.9 0.3 0.5 47 51.5 50.2 0.2 50.2 0.02 0 0 1 4 4 0.2 0.2 0.9 1.1 1 1 0 0.5 -0.002 0.002 0.5 0.5 0.25 4 prot_PV112717 support_PV112717 ;
INJEC IBG22r PV112718 112718 0 0 0.00480 0.00000 0.05 0.03 Iprate_PV112718 Tg_PV112718 0.01 0.3 1.5 0.7 1.1 tau_PV112718 0.5 0.9 0.3 0.5 47 51.5 50.2 0.2 50.2 0.02 0 0 1 4 4 0.2 0.2 0.9 1.1 1 1 0 0.5 -0.002 0.002 0.5 0.5 0.25 4 prot_PV112718 support_PV112718 ;
INJEC IBG22r PV112811 112811 0 0 0.00400 0.00000 0.05 0.03 Iprate_PV112811 Tg_PV112811 0.01 0.3 1.5 0.7 1.1 tau_PV112811 0.5 0.9 0.3 0.5 47 51.5 50.2 0.2 50.2 0.02 0 0 1 4 4 0.2 0.2 0.9 1.1 1 1 0 0.5 -0.002 0.002 0.5 0.5 0.25 4 prot_PV112811 support_PV112811 ;
INJEC IBG22r PV112815 112815 0 0 0.01000 0.00000 0.05 0.03 Iprate_PV112815 Tg_PV112815 0.01 0.3 1.5 0.7 1.1 tau_PV112815 0.5 0.9 0.3 0.5 47 51.5 50.2 0.2 50.2 0.02 0 0 1 4 4 0.2 0.2 0.9 1.1 1 1 0 0.5 -0.002 0.002 0.5 0.5 0.25 4 prot_PV112815 support_PV112815 ;
INJEC IBG22r PV112816 112816 0 0 0.00320 0.00000 0.05 0.03 Iprate_PV112816 Tg_PV112816 0.01 0.3 1.5 0.7 1.1 tau_PV112816 0.5 0.9 0.3 0.5 47 51.5 50.2 0.2 50.2 0.02 0 0 1 4 4 0.2 0.2 0.9 1.1 1 1 0 0.5 -0.002 0.002 0.5 0.5 0.25 4 prot_PV112816 support_PV112816 ;
INJEC IBG22r PV112817 112817 0 0 0.00800 0.00000 0.05 0.03 Iprate_PV112817 Tg_PV112817 0.01 0.3 1.5 0.7 1.1 tau_PV112817 0.5 0.9 0.3 0.5 47 51.5 50.2 0.2 50.2 0.02 0 0 1 4 4 0.2 0.2 0.9 1.1 1 1 0 0.5 -0.002 0.002 0.5 0.5 0.25 4 prot_PV112817 support_PV112817 ;
INJEC IBG22r PV112818 112818 0 0 0.00480 0.00000 0.05 0.03 Iprate_PV112818 Tg_PV112818 0.01 0.3 1.5 0.7 1.1 tau_PV112818 0.5 0.9 0.3 0.5 47 51.5 50.2 0.2 50.2 0.02 0 0 1 4 4 0.2 0.2 0.9 1.1 1 1 0 0.5 -0.002 0.002 0.5 0.5 0.25 4 prot_PV112818 support_PV112818 ;
INJEC IBG22r PV112911 112911 0 0 0.00400 0.00000 0.05 0.03 Iprate_PV112911 Tg_PV112911 0.01 0.3 1.5 0.7 1.1 tau_PV112911 0.5 0.9 0.3 0.5 47 51.5 50.2 0.2 50.2 0.02 0 0 1 4 4 0.2 0.2 0.9 1.1 1 1 0 0.5 -0.002 0.002 0.5 0.5 0.25 4 prot_PV112911 support_PV112911 ;
INJEC IBG22r PV112915 112915 0 0 0.01000 0.00000 0.05 0.03 Iprate_PV112915 Tg_PV112915 0.01 0.3 1.5 0.7 1.1 tau_PV112915 0.5 0.9 0.3 0.5 47 51.5 50.2 0.2 50.2 0.02 0 0 1 4 4 0.2 0.2 0.9 1.1 1 1 0 0.5 -0.002 0.002 0.5 0.5 0.25 4 prot_PV112915 support_PV112915 ;
INJEC IBG22r PV112916 112916 0 0 0.00320 0.00000 0.05 0.03 Iprate_PV112916 Tg_PV112916 0.01 0.3 1.5 0.7 1.1 tau_PV112916 0.5 0.9 0.3 0.5 47 51.5 50.2 0.2 50.2 0.02 0 0 1 4 4 0.2 0.2 0.9 1.1 1 1 0 0.5 -0.002 0.002 0.5 0.5 0.25 4 prot_PV112916 support_PV112916 ;
INJEC IBG22r PV112917 112917 0 0 0.00800 0.00000 0.05 0.03 Iprate_PV112917 Tg_PV112917 0.01 0.3 1.5 0.7 1.1 tau_PV112917 0.5 0.9 0.3 0.5 47 51.5 50.2 0.2 50.2 0.02 0 0 1 4 4 0.2 0.2 0.9 1.1 1 1 0 0.5 -0.002 0.002 0.5 0.5 0.25 4 prot_PV112917 support_PV112917 ;
INJEC IBG22r PV112918 112918 0 0 0.00480 0.00000 0.05 0.03 Iprate_PV112918 Tg_PV112918 0.01 0.3 1.5 0.7 1.1 tau_PV112918 0.5 0.9 0.3 0.5 47 51.5 50.2 0.2 50.2 0.02 0 0 1 4 4 0.2 0.2 0.9 1.1 1 1 0 0.5 -0.002 0.002 0.5 0.5 0.25 4 prot_PV112918 support_PV112918 ;
INJEC IBG22r PV113011 113011 0 0 0.00400 0.00000 0.05 0.03 Iprate_PV113011 Tg_PV113011 0.01 0.3 1.5 0.7 1.1 tau_PV113011 0.5 0.9 0.3 0.5 47 51.5 50.2 0.2 50.2 0.02 0 0 1 4 4 0.2 0.2 0.9 1.1 1 1 0 0.5 -0.002 0.002 0.5 0.5 0.25 4 prot_PV113011 support_PV113011 ;
INJEC IBG22r PV113015 113015 0 0 0.01000 0.00000 0.05 0.03 Iprate_PV113015 Tg_PV113015 0.01 0.3 1.5 0.7 1.1 tau_PV113015 0.5 0.9 0.3 0.5 47 51.5 50.2 0.2 50.2 0.02 0 0 1 4 4 0.2 0.2 0.9 1.1 1 1 0 0.5 -0.002 0.002 0.5 0.5 0.25 4 prot_PV113015 support_PV113015 ;
INJEC IBG22r PV113016 113016 0 0 0.00320 0.00000 0.05 0.03 Iprate_PV113016 Tg_PV113016 0.01 0.3 1.5 0.7 1.1 tau_PV113016 0.5 0.9 0.3 0.5 47 51.5 50.2 0.2 50.2 0.02 0 0 1 4 4 0.2 0.2 0.9 1.1 1 1 0 0.5 -0.002 0.002 0.5 0.5 0.25 4 prot_PV113016 support_PV113016 ;
INJEC IBG22r PV113017 113017 0 0 0.00800 0.00000 0.05 0.03 Iprate_PV113017 Tg_PV113017 0.01 0.3 1.5 0.7 1.1 tau_PV113017 0.5 0.9 0.3 0.5 47 51.5 50.2 0.2 50.2 0.02 0 0 1 4 4 0.2 0.2 0.9 1.1 1 1 0 0.5 -0.002 0.002 0.5 0.5 0.25 4 prot_PV113017 support_PV113017 ;
INJEC IBG22r PV113018 113018 0 0 0.00480 0.00000 0.05 0.03 Iprate_PV113018 Tg_PV113018 0.01 0.3 1.5 0.7 1.1 tau_PV113018 0.5 0.9 0.3 0.5 47 51.5 50.2 0.2 50.2 0.02 0 0 1 4 4 0.2 0.2 0.9 1.1 1 1 0 0.5 -0.002 0.002 0.5 0.5 0.25 4 prot_PV113018 support_PV113018 ;
INJEC IBG22r PV113111 113111 0 0 0.00400 0.00000 0.05 0.03 Iprate_PV113111 Tg_PV113111 0.01 0.3 1.5 0.7 1.1 tau_PV113111 0.5 0.9 0.3 0.5 47 51.5 50.2 0.2 50.2 0.02 0 0 1 4 4 0.2 0.2 0.9 1.1 1 1 0 0.5 -0.002 0.002 0.5 0.5 0.25 4 prot_PV113111 support_PV113111 ;
INJEC IBG22r PV113115 113115 0 0 0.01000 0.00000 0.05 0.03 Iprate_PV113115 Tg_PV113115 0.01 0.3 1.5 0.7 1.1 tau_PV113115 0.5 0.9 0.3 0.5 47 51.5 50.2 0.2 50.2 0.02 0 0 1 4 4 0.2 0.2 0.9 1.1 1 1 0 0.5 -0.002 0.002 0.5 0.5 0.25 4 prot_PV113115 support_PV113115 ;
INJEC IBG22r PV113116 113116 0 0 0.00320 0.00000 0.05 0.03 Iprate_PV113116 Tg_PV113116 0.01 0.3 1.5 0.7 1.1 tau_PV113116 0.5 0.9 0.3 0.5 47 51.5 50.2 0.2 50.2 0.02 0 0 1 4 4 0.2 0.2 0.9 1.1 1 1 0 0.5 -0.002 0.002 0.5 0.5 0.25 4 prot_PV113116 support_PV113116 ;
INJEC IBG22r PV113117 113117 0 0 0.00800 0.00000 0.05 0.03 Iprate_PV113117 Tg_PV113117 0.01 0.3 1.5 0.7 1.1 tau_PV113117 0.5 0.9 0.3 0.5 47 51.5 50.2 0.2 50.2 0.02 0 0 1 4 4 0.2 0.2 0.9 1.1 1 1 0 0.5 -0.002 0.002 0.5 0.5 0.25 4 prot_PV113117 support_PV113117 ;
INJEC IBG22r PV113118 113118 0 0 0.00480 0.00000 0.05 0.03 Iprate_PV113118 Tg_PV113118 0.01 0.3 1.5 0.7 1.1 tau_PV113118 0.5 0.9 0.3 0.5 47 51.5 50.2 0.2 50.2 0.02 0 0 1 4 4 0.2 0.2 0.9 1.1 1 1 0 0.5 -0.002 0.002 0.5 0.5 0.25 4 prot_PV113118 support_PV113118 ;
INJEC IBG22r PV113211 113211 0 0 0.00400 0.00000 0.05 0.03 Iprate_PV113211 Tg_PV113211 0.01 0.3 1.5 0.7 1.1 tau_PV113211 0.5 0.9 0.3 0.5 47 51.5 50.2 0.2 50.2 0.02 0 0 1 4 4 0.2 0.2 0.9 1.1 1 1 0 0.5 -0.002 0.002 0.5 0.5 0.25 4 prot_PV113211 support_PV113211 ;
INJEC IBG22r PV113215 113215 0 0 0.01000 0.00000 0.05 0.03 Iprate_PV113215 Tg_PV113215 0.01 0.3 1.5 0.7 1.1 tau_PV113215 0.5 0.9 0.3 0.5 47 51.5 50.2 0.2 50.2 0.02 0 0 1 4 4 0.2 0.2 0.9 1.1 1 1 0 0.5 -0.002 0.002 0.5 0.5 0.25 4 prot_PV113215 support_PV113215 ;
INJEC IBG22r PV113216 113216 0 0 0.00320 0.00000 0.05 0.03 Iprate_PV113216 Tg_PV113216 0.01 0.3 1.5 0.7 1.1 tau_PV113216 0.5 0.9 0.3 0.5 47 51.5 50.2 0.2 50.2 0.02 0 0 1 4 4 0.2 0.2 0.9 1.1 1 1 0 0.5 -0.002 0.002 0.5 0.5 0.25 4 prot_PV113216 support_PV113216 ;
INJEC IBG22r PV113217 113217 0 0 0.00800 0.00000 0.05 0.03 Iprate_PV113217 Tg_PV113217 0.01 0.3 1.5 0.7 1.1 tau_PV113217 0.5 0.9 0.3 0.5 47 51.5 50.2 0.2 50.2 0.02 0 0 1 4 4 0.2 0.2 0.9 1.1 1 1 0 0.5 -0.002 0.002 0.5 0.5 0.25 4 prot_PV113217 support_PV113217 ;
INJEC IBG22r PV113218 113218 0 0 0.00480 0.00000 0.05 0.03 Iprate_PV113218 Tg_PV113218 0.01 0.3 1.5 0.7 1.1 tau_PV113218 0.5 0.9 0.3 0.5 47 51.5 50.2 0.2 50.2 0.02 0 0 1 4 4 0.2 0.2 0.9 1.1 1 1 0 0.5 -0.002 0.002 0.5 0.5 0.25 4 prot_PV113218 support_PV113218 ;
INJEC IBG22r PV113311 113311 0 0 0.00400 0.00000 0.05 0.03 Iprate_PV113311 Tg_PV113311 0.01 0.3 1.5 0.7 1.1 tau_PV113311 0.5 0.9 0.3 0.5 47 51.5 50.2 0.2 50.2 0.02 0 0 1 4 4 0.2 0.2 0.9 1.1 1 1 0 0.5 -0.002 0.002 0.5 0.5 0.25 4 prot_PV113311 support_PV113311 ;
INJEC IBG22r PV113315 113315 0 0 0.01000 0.00000 0.05 0.03 Iprate_PV113315 Tg_PV113315 0.01 0.3 1.5 0.7 1.1 tau_PV113315 0.5 0.9 0.3 0.5 47 51.5 50.2 0.2 50.2 0.02 0 0 1 4 4 0.2 0.2 0.9 1.1 1 1 0 0.5 -0.002 0.002 0.5 0.5 0.25 4 prot_PV113315 support_PV113315 ;
INJEC IBG22r PV113316 113316 0 0 0.00320 0.00000 0.05 0.03 Iprate_PV113316 Tg_PV113316 0.01 0.3 1.5 0.7 1.1 tau_PV113316 0.5 0.9 0.3 0.5 47 51.5 50.2 0.2 50.2 0.02 0 0 1 4 4 0.2 0.2 0.9 1.1 1 1 0 0.5 -0.002 0.002 0.5 0.5 0.25 4 prot_PV113316 support_PV113316 ;
INJEC IBG22r PV113317 113317 0 0 0.00800 0.00000 0.05 0.03 Iprate_PV113317 Tg_PV113317 0.01 0.3 1.5 0.7 1.1 tau_PV113317 0.5 0.9 0.3 0.5 47 51.5 50.2 0.2 50.2 0.02 0 0 1 4 4 0.2 0.2 0.9 1.1 1 1 0 0.5 -0.002 0.002 0.5 0.5 0.25 4 prot_PV113317 support_PV113317 ;
INJEC IBG22r PV113318 113318 0 0 0.00480 0.00000 0.05 0.03 Iprate_PV113318 Tg_PV113318 0.01 0.3 1.5 0.7 1.1 tau_PV113318 0.5 0.9 0.3 0.5 47 51.5 50.2 0.2 50.2 0.02 0 0 1 4 4 0.2 0.2 0.9 1.1 1 1 0 0.5 -0.002 0.002 0.5 0.5 0.25 4 prot_PV113318 support_PV113318 ;
INJEC IBG22r PV113411 113411 0 0 0.00400 0.00000 0.05 0.03 Iprate_PV113411 Tg_PV113411 0.01 0.3 1.5 0.7 1.1 tau_PV113411 0.5 0.9 0.3 0.5 47 51.5 50.2 0.2 50.2 0.02 0 0 1 4 4 0.2 0.2 0.9 1.1 1 1 0 0.5 -0.002 0.002 0.5 0.5 0.25 4 prot_PV113411 support_PV113411 ;
INJEC IBG22r PV113415 113415 0 0 0.01000 0.00000 0.05 0.03 Iprate_PV113415 Tg_PV113415 0.01 0.3 1.5 0.7 1.1 tau_PV113415 0.5 0.9 0.3 0.5 47 51.5 50.2 0.2 50.2 0.02 0 0 1 4 4 0.2 0.2 0.9 1.1 1 1 0 0.5 -0.002 0.002 0.5 0.5 0.25 4 prot_PV113415 support_PV113415 ;
INJEC IBG22r PV113416 113416 0 0 0.00320 0.00000 0.05 0.03 Iprate_PV113416 Tg_PV113416 0.01 0.3 1.5 0.7 1.1 tau_PV113416 0.5 0.9 0.3 0.5 47 51.5 50.2 0.2 50.2 0.02 0 0 1 4 4 0.2 0.2 0.9 1.1 1 1 0 0.5 -0.002 0.002 0.5 0.5 0.25 4 prot_PV113416 support_PV113416 ;
INJEC IBG22r PV113417 113417 0 0 0.00800 0.00000 0.05 0.03 Iprate_PV113417 Tg_PV113417 0.01 0.3 1.5 0.7 1.1 tau_PV113417 0.5 0.9 0.3 0.5 47 51.5 50.2 0.2 50.2 0.02 0 0 1 4 4 0.2 0.2 0.9 1.1 1 1 0 0.5 -0.002 0.002 0.5 0.5 0.25 4 prot_PV113417 support_PV113417 ;
INJEC IBG22r PV113418 113418 0 0 0.00480 0.00000 0.05 0.03 Iprate_PV113418 Tg_PV113418 0.01 0.3 1.5 0.7 1.1 tau_PV113418 0.5 0.9 0.3 0.5 47 51.5 50.2 0.2 50.2 0.02 0 0 1 4 4 0.2 0.2 0.9 1.1 1 1 0 0.5 -0.002 0.002 0.5 0.5 0.25 4 prot_PV113418 support_PV113418 ;
INJEC IBG22r PV113511 113511 0 0 0.00400 0.00000 0.05 0.03 Iprate_PV113511 Tg_PV113511 0.01 0.3 1.5 0.7 1.1 tau_PV113511 0.5 0.9 0.3 0.5 47 51.5 50.2 0.2 50.2 0.02 0 0 1 4 4 0.2 0.2 0.9 1.1 1 1 0 0.5 -0.002 0.002 0.5 0.5 0.25 4 prot_PV113511 support_PV113511 ;
INJEC IBG22r PV113515 113515 0 0 0.01000 0.00000 0.05 0.03 Iprate_PV113515 Tg_PV113515 0.01 0.3 1.5 0.7 1.1 tau_PV113515 0.5 0.9 0.3 0.5 47 51.5 50.2 0.2 50.2 0.02 0 0 1 4 4 0.2 0.2 0.9 1.1 1 1 0 0.5 -0.002 0.002 0.5 0.5 0.25 4 prot_PV113515 support_PV113515 ;
INJEC IBG22r PV113516 113516 0 0 0.00320 0.00000 0.05 0.03 Iprate_PV113516 Tg_PV113516 0.01 0.3 1.5 0.7 1.1 tau_PV113516 0.5 0.9 0.3 0.5 47 51.5 50.2 0.2 50.2 0.02 0 0 1 4 4 0.2 0.2 0.9 1.1 1 1 0 0.5 -0.002 0.002 0.5 0.5 0.25 4 prot_PV113516 support_PV113516 ;
INJEC IBG22r PV113517 113517 0 0 0.00800 0.00000 0.05 0.03 Iprate_PV113517 Tg_PV113517 0.01 0.3 1.5 0.7 1.1 tau_PV113517 0.5 0.9 0.3 0.5 47 51.5 50.2 0.2 50.2 0.02 0 0 1 4 4 0.2 0.2 0.9 1.1 1 1 0 0.5 -0.002 0.002 0.5 0.5 0.25 4 prot_PV113517 support_PV113517 ;
INJEC IBG22r PV113518 113518 0 0 0.00480 0.00000 0.05 0.03 Iprate_PV113518 Tg_PV113518 0.01 0.3 1.5 0.7 1.1 tau_PV113518 0.5 0.9 0.3 0.5 47 51.5 50.2 0.2 50.2 0.02 0 0 1 4 4 0.2 0.2 0.9 1.1 1 1 0 0.5 -0.002 0.002 0.5 0.5 0.25 4 prot_PV113518 support_PV113518 ;
INJEC IBG22r PV113611 113611 0 0 0.00400 0.00000 0.05 0.03 Iprate_PV113611 Tg_PV113611 0.01 0.3 1.5 0.7 1.1 tau_PV113611 0.5 0.9 0.3 0.5 47 51.5 50.2 0.2 50.2 0.02 0 0 1 4 4 0.2 0.2 0.9 1.1 1 1 0 0.5 -0.002 0.002 0.5 0.5 0.25 4 prot_PV113611 support_PV113611 ;
INJEC IBG22r PV113615 113615 0 0 0.01000 0.00000 0.05 0.03 Iprate_PV113615 Tg_PV113615 0.01 0.3 1.5 0.7 1.1 tau_PV113615 0.5 0.9 0.3 0.5 47 51.5 50.2 0.2 50.2 0.02 0 0 1 4 4 0.2 0.2 0.9 1.1 1 1 0 0.5 -0.002 0.002 0.5 0.5 0.25 4 prot_PV113615 support_PV113615 ;
INJEC IBG22r PV113616 113616 0 0 0.00320 0.00000 0.05 0.03 Iprate_PV113616 Tg_PV113616 0.01 0.3 1.5 0.7 1.1 tau_PV113616 0.5 0.9 0.3 0.5 47 51.5 50.2 0.2 50.2 0.02 0 0 1 4 4 0.2 0.2 0.9 1.1 1 1 0 0.5 -0.002 0.002 0.5 0.5 0.25 4 prot_PV113616 support_PV113616 ;
INJEC IBG22r PV113617 113617 0 0 0.00800 0.00000 0.05 0.03 Iprate_PV113617 Tg_PV113617 0.01 0.3 1.5 0.7 1.1 tau_PV113617 0.5 0.9 0.3 0.5 47 51.5 50.2 0.2 50.2 0.02 0 0 1 4 4 0.2 0.2 0.9 1.1 1 1 0 0.5 -0.002 0.002 0.5 0.5 0.25 4 prot_PV113617 support_PV113617 ;
INJEC IBG22r PV113618 113618 0 0 0.00480 0.00000 0.05 0.03 Iprate_PV113618 Tg_PV113618 0.01 0.3 1.5 0.7 1.1 tau_PV113618 0.5 0.9 0.3 0.5 47 51.5 50.2 0.2 50.2 0.02 0 0 1 4 4 0.2 0.2 0.9 1.1 1 1 0 0.5 -0.002 0.002 0.5 0.5 0.25 4 prot_PV113618 support_PV113618 ;
INJEC IBG22r PV113711 113711 0 0 0.00400 0.00000 0.05 0.03 Iprate_PV113711 Tg_PV113711 0.01 0.3 1.5 0.7 1.1 tau_PV113711 0.5 0.9 0.3 0.5 47 51.5 50.2 0.2 50.2 0.02 0 0 1 4 4 0.2 0.2 0.9 1.1 1 1 0 0.5 -0.002 0.002 0.5 0.5 0.25 4 prot_PV113711 support_PV113711 ;
INJEC IBG22r PV113715 113715 0 0 0.01000 0.00000 0.05 0.03 Iprate_PV113715 Tg_PV113715 0.01 0.3 1.5 0.7 1.1 tau_PV113715 0.5 0.9 0.3 0.5 47 51.5 50.2 0.2 50.2 0.02 0 0 1 4 4 0.2 0.2 0.9 1.1 1 1 0 0.5 -0.002 0.002 0.5 0.5 0.25 4 prot_PV113715 support_PV113715 ;
INJEC IBG22r PV113716 113716 0 0 0.00320 0.00000 0.05 0.03 Iprate_PV113716 Tg_PV113716 0.01 0.3 1.5 0.7 1.1 tau_PV113716 0.5 0.9 0.3 0.5 47 51.5 50.2 0.2 50.2 0.02 0 0 1 4 4 0.2 0.2 0.9 1.1 1 1 0 0.5 -0.002 0.002 0.5 0.5 0.25 4 prot_PV113716 support_PV113716 ;
INJEC IBG22r PV113717 113717 0 0 0.00800 0.00000 0.05 0.03 Iprate_PV113717 Tg_PV113717 0.01 0.3 1.5 0.7 1.1 tau_PV113717 0.5 0.9 0.3 0.5 47 51.5 50.2 0.2 50.2 0.02 0 0 1 4 4 0.2 0.2 0.9 1.1 1 1 0 0.5 -0.002 0.002 0.5 0.5 0.25 4 prot_PV113717 support_PV113717 ;
INJEC IBG22r PV113718 113718 0 0 0.00480 0.00000 0.05 0.03 Iprate_PV113718 Tg_PV113718 0.01 0.3 1.5 0.7 1.1 tau_PV113718 0.5 0.9 0.3 0.5 47 51.5 50.2 0.2 50.2 0.02 0 0 1 4 4 0.2 0.2 0.9 1.1 1 1 0 0.5 -0.002 0.002 0.5 0.5 0.25 4 prot_PV113718 support_PV113718 ;
INJEC IBG22r PV113811 113811 0 0 0.00400 0.00000 0.05 0.03 Iprate_PV113811 Tg_PV113811 0.01 0.3 1.5 0.7 1.1 tau_PV113811 0.5 0.9 0.3 0.5 47 51.5 50.2 0.2 50.2 0.02 0 0 1 4 4 0.2 0.2 0.9 1.1 1 1 0 0.5 -0.002 0.002 0.5 0.5 0.25 4 prot_PV113811 support_PV113811 ;
INJEC IBG22r PV113815 113815 0 0 0.01000 0.00000 0.05 0.03 Iprate_PV113815 Tg_PV113815 0.01 0.3 1.5 0.7 1.1 tau_PV113815 0.5 0.9 0.3 0.5 47 51.5 50.2 0.2 50.2 0.02 0 0 1 4 4 0.2 0.2 0.9 1.1 1 1 0 0.5 -0.002 0.002 0.5 0.5 0.25 4 prot_PV113815 support_PV113815 ;
INJEC IBG22r PV113816 113816 0 0 0.00320 0.00000 0.05 0.03 Iprate_PV113816 Tg_PV113816 0.01 0.3 1.5 0.7 1.1 tau_PV113816 0.5 0.9 0.3 0.5 47 51.5 50.2 0.2 50.2 0.02 0 0 1 4 4 0.2 0.2 0.9 1.1 1 1 0 0.5 -0.002 0.002 0.5 0.5 0.25 4 prot_PV113816 support_PV113816 ;
INJEC IBG22r PV113817 113817 0 0 0.00800 0.00000 0.05 0.03 Iprate_PV113817 Tg_PV113817 0.01 0.3 1.5 0.7 1.1 tau_PV113817 0.5 0.9 0.3 0.5 47 51.5 50.2 0.2 50.2 0.02 0 0 1 4 4 0.2 0.2 0.9 1.1 1 1 0 0.5 -0.002 0.002 0.5 0.5 0.25 4 prot_PV113817 support_PV113817 ;
INJEC IBG22r PV113818 113818 0 0 0.00480 0.00000 0.05 0.03 Iprate_PV113818 Tg_PV113818 0.01 0.3 1.5 0.7 1.1 tau_PV113818 0.5 0.9 0.3 0.5 47 51.5 50.2 0.2 50.2 0.02 0 0 1 4 4 0.2 0.2 0.9 1.1 1 1 0 0.5 -0.002 0.002 0.5 0.5 0.25 4 prot_PV113818 support_PV113818 ;
INJEC IBG22r PV113911 113911 0 0 0.00400 0.00000 0.05 0.03 Iprate_PV113911 Tg_PV113911 0.01 0.3 1.5 0.7 1.1 tau_PV113911 0.5 0.9 0.3 0.5 47 51.5 50.2 0.2 50.2 0.02 0 0 1 4 4 0.2 0.2 0.9 1.1 1 1 0 0.5 -0.002 0.002 0.5 0.5 0.25 4 prot_PV113911 support_PV113911 ;
INJEC IBG22r PV113915 113915 0 0 0.01000 0.00000 0.05 0.03 Iprate_PV113915 Tg_PV113915 0.01 0.3 1.5 0.7 1.1 tau_PV113915 0.5 0.9 0.3 0.5 47 51.5 50.2 0.2 50.2 0.02 0 0 1 4 4 0.2 0.2 0.9 1.1 1 1 0 0.5 -0.002 0.002 0.5 0.5 0.25 4 prot_PV113915 support_PV113915 ;
INJEC IBG22r PV113916 113916 0 0 0.00320 0.00000 0.05 0.03 Iprate_PV113916 Tg_PV113916 0.01 0.3 1.5 0.7 1.1 tau_PV113916 0.5 0.9 0.3 0.5 47 51.5 50.2 0.2 50.2 0.02 0 0 1 4 4 0.2 0.2 0.9 1.1 1 1 0 0.5 -0.002 0.002 0.5 0.5 0.25 4 prot_PV113916 support_PV113916 ;
INJEC IBG22r PV113917 113917 0 0 0.00800 0.00000 0.05 0.03 Iprate_PV113917 Tg_PV113917 0.01 0.3 1.5 0.7 1.1 tau_PV113917 0.5 0.9 0.3 0.5 47 51.5 50.2 0.2 50.2 0.02 0 0 1 4 4 0.2 0.2 0.9 1.1 1 1 0 0.5 -0.002 0.002 0.5 0.5 0.25 4 prot_PV113917 support_PV113917 ;
INJEC IBG22r PV113918 113918 0 0 0.00480 0.00000 0.05 0.03 Iprate_PV113918 Tg_PV113918 0.01 0.3 1.5 0.7 1.1 tau_PV113918 0.5 0.9 0.3 0.5 47 51.5 50.2 0.2 50.2 0.02 0 0 1 4 4 0.2 0.2 0.9 1.1 1 1 0 0.5 -0.002 0.002 0.5 0.5 0.25 4 prot_PV113918 support_PV113918 ;
INJEC IBG22r PV114011 114011 0 0 0.00400 0.00000 0.05 0.03 Iprate_PV114011 Tg_PV114011 0.01 0.3 1.5 0.7 1.1 tau_PV114011 0.5 0.9 0.3 0.5 47 51.5 50.2 0.2 50.2 0.02 0 0 1 4 4 0.2 0.2 0.9 1.1 1 1 0 0.5 -0.002 0.002 0.5 0.5 0.25 4 prot_PV114011 support_PV114011 ;
INJEC IBG22r PV114015 114015 0 0 0.01000 0.00000 0.05 0.03 Iprate_PV114015 Tg_PV114015 0.01 0.3 1.5 0.7 1.1 tau_PV114015 0.5 0.9 0.3 0.5 47 51.5 50.2 0.2 50.2 0.02 0 0 1 4 4 0.2 0.2 0.9 1.1 1 1 0 0.5 -0.002 0.002 0.5 0.5 0.25 4 prot_PV114015 support_PV114015 ;
INJEC IBG22r PV114016 114016 0 0 0.00320 0.00000 0.05 0.03 Iprate_PV114016 Tg_PV114016 0.01 0.3 1.5 0.7 1.1 tau_PV114016 0.5 0.9 0.3 0.5 47 51.5 50.2 0.2 50.2 0.02 0 0 1 4 4 0.2 0.2 0.9 1.1 1 1 0 0.5 -0.002 0.002 0.5 0.5 0.25 4 prot_PV114016 support_PV114016 ;
INJEC IBG22r PV114017 114017 0 0 0.00800 0.00000 0.05 0.03 Iprate_PV114017 Tg_PV114017 0.01 0.3 1.5 0.7 1.1 tau_PV114017 0.5 0.9 0.3 0.5 47 51.5 50.2 0.2 50.2 0.02 0 0 1 4 4 0.2 0.2 0.9 1.1 1 1 0 0.5 -0.002 0.002 0.5 0.5 0.25 4 prot_PV114017 support_PV114017 ;
INJEC IBG22r PV114018 114018 0 0 0.00480 0.00000 0.05 0.03 Iprate_PV114018 Tg_PV114018 0.01 0.3 1.5 0.7 1.1 tau_PV114018 0.5 0.9 0.3 0.5 47 51.5 50.2 0.2 50.2 0.02 0 0 1 4 4 0.2 0.2 0.9 1.1 1 1 0 0.5 -0.002 0.002 0.5 0.5 0.25 4 prot_PV114018 support_PV114018 ;
INJEC IBG22r PV114111 114111 0 0 0.00400 0.00000 0.05 0.03 Iprate_PV114111 Tg_PV114111 0.01 0.3 1.5 0.7 1.1 tau_PV114111 0.5 0.9 0.3 0.5 47 51.5 50.2 0.2 50.2 0.02 0 0 1 4 4 0.2 0.2 0.9 1.1 1 1 0 0.5 -0.002 0.002 0.5 0.5 0.25 4 prot_PV114111 support_PV114111 ;
INJEC IBG22r PV114115 114115 0 0 0.01000 0.00000 0.05 0.03 Iprate_PV114115 Tg_PV114115 0.01 0.3 1.5 0.7 1.1 tau_PV114115 0.5 0.9 0.3 0.5 47 51.5 50.2 0.2 50.2 0.02 0 0 1 4 4 0.2 0.2 0.9 1.1 1 1 0 0.5 -0.002 0.002 0.5 0.5 0.25 4 prot_PV114115 support_PV114115 ;
INJEC IBG22r PV114116 114116 0 0 0.00320 0.00000 0.05 0.03 Iprate_PV114116 Tg_PV114116 0.01 0.3 1.5 0.7 1.1 tau_PV114116 0.5 0.9 0.3 0.5 47 51.5 50.2 0.2 50.2 0.02 0 0 1 4 4 0.2 0.2 0.9 1.1 1 1 0 0.5 -0.002 0.002 0.5 0.5 0.25 4 prot_PV114116 support_PV114116 ;
INJEC IBG22r PV114117 114117 0 0 0.00800 0.00000 0.05 0.03 Iprate_PV114117 Tg_PV114117 0.01 0.3 1.5 0.7 1.1 tau_PV114117 0.5 0.9 0.3 0.5 47 51.5 50.2 0.2 50.2 0.02 0 0 1 4 4 0.2 0.2 0.9 1.1 1 1 0 0.5 -0.002 0.002 0.5 0.5 0.25 4 prot_PV114117 support_PV114117 ;
INJEC IBG22r PV114118 114118 0 0 0.00480 0.00000 0.05 0.03 Iprate_PV114118 Tg_PV114118 0.01 0.3 1.5 0.7 1.1 tau_PV114118 0.5 0.9 0.3 0.5 47 51.5 50.2 0.2 50.2 0.02 0 0 1 4 4 0.2 0.2 0.9 1.1 1 1 0 0.5 -0.002 0.002 0.5 0.5 0.25 4 prot_PV114118 support_PV114118 ;
INJEC IBG22r PV114211 114211 0 0 0.00400 0.00000 0.05 0.03 Iprate_PV114211 Tg_PV114211 0.01 0.3 1.5 0.7 1.1 tau_PV114211 0.5 0.9 0.3 0.5 47 51.5 50.2 0.2 50.2 0.02 0 0 1 4 4 0.2 0.2 0.9 1.1 1 1 0 0.5 -0.002 0.002 0.5 0.5 0.25 4 prot_PV114211 support_PV114211 ;
INJEC IBG22r PV114215 114215 0 0 0.01000 0.00000 0.05 0.03 Iprate_PV114215 Tg_PV114215 0.01 0.3 1.5 0.7 1.1 tau_PV114215 0.5 0.9 0.3 0.5 47 51.5 50.2 0.2 50.2 0.02 0 0 1 4 4 0.2 0.2 0.9 1.1 1 1 0 0.5 -0.002 0.002 0.5 0.5 0.25 4 prot_PV114215 support_PV114215 ;
INJEC IBG22r PV114216 114216 0 0 0.00320 0.00000 0.05 0.03 Iprate_PV114216 Tg_PV114216 0.01 0.3 1.5 0.7 1.1 tau_PV114216 0.5 0.9 0.3 0.5 47 51.5 50.2 0.2 50.2 0.02 0 0 1 4 4 0.2 0.2 0.9 1.1 1 1 0 0.5 -0.002 0.002 0.5 0.5 0.25 4 prot_PV114216 support_PV114216 ;
INJEC IBG22r PV114217 114217 0 0 0.00800 0.00000 0.05 0.03 Iprate_PV114217 Tg_PV114217 0.01 0.3 1.5 0.7 1.1 tau_PV114217 0.5 0.9 0.3 0.5 47 51.5 50.2 0.2 50.2 0.02 0 0 1 4 4 0.2 0.2 0.9 1.1 1 1 0 0.5 -0.002 0.002 0.5 0.5 0.25 4 prot_PV114217 support_PV114217 ;
INJEC IBG22r PV114218 114218 0 0 0.00480 0.00000 0.05 0.03 Iprate_PV114218 Tg_PV114218 0.01 0.3 1.5 0.7 1.1 tau_PV114218 0.5 0.9 0.3 0.5 47 51.5 50.2 0.2 50.2 0.02 0 0 1 4 4 0.2 0.2 0.9 1.1 1 1 0 0.5 -0.002 0.002 0.5 0.5 0.25 4 prot_PV114218 support_PV114218 ;
INJEC IBG22r PV114311 114311 0 0 0.00400 0.00000 0.05 0.03 Iprate_PV114311 Tg_PV114311 0.01 0.3 1.5 0.7 1.1 tau_PV114311 0.5 0.9 0.3 0.5 47 51.5 50.2 0.2 50.2 0.02 0 0 1 4 4 0.2 0.2 0.9 1.1 1 1 0 0.5 -0.002 0.002 0.5 0.5 0.25 4 prot_PV114311 support_PV114311 ;
INJEC IBG22r PV114315 114315 0 0 0.01000 0.00000 0.05 0.03 Iprate_PV114315 Tg_PV114315 0.01 0.3 1.5 0.7 1.1 tau_PV114315 0.5 0.9 0.3 0.5 47 51.5 50.2 0.2 50.2 0.02 0 0 1 4 4 0.2 0.2 0.9 1.1 1 1 0 0.5 -0.002 0.002 0.5 0.5 0.25 4 prot_PV114315 support_PV114315 ;
INJEC IBG22r PV114316 114316 0 0 0.00320 0.00000 0.05 0.03 Iprate_PV114316 Tg_PV114316 0.01 0.3 1.5 0.7 1.1 tau_PV114316 0.5 0.9 0.3 0.5 47 51.5 50.2 0.2 50.2 0.02 0 0 1 4 4 0.2 0.2 0.9 1.1 1 1 0 0.5 -0.002 0.002 0.5 0.5 0.25 4 prot_PV114316 support_PV114316 ;
INJEC IBG22r PV114317 114317 0 0 0.00800 0.00000 0.05 0.03 Iprate_PV114317 Tg_PV114317 0.01 0.3 1.5 0.7 1.1 tau_PV114317 0.5 0.9 0.3 0.5 47 51.5 50.2 0.2 50.2 0.02 0 0 1 4 4 0.2 0.2 0.9 1.1 1 1 0 0.5 -0.002 0.002 0.5 0.5 0.25 4 prot_PV114317 support_PV114317 ;
INJEC IBG22r PV114318 114318 0 0 0.00480 0.00000 0.05 0.03 Iprate_PV114318 Tg_PV114318 0.01 0.3 1.5 0.7 1.1 tau_PV114318 0.5 0.9 0.3 0.5 47 51.5 50.2 0.2 50.2 0.02 0 0 1 4 4 0.2 0.2 0.9 1.1 1 1 0 0.5 -0.002 0.002 0.5 0.5 0.25 4 prot_PV114318 support_PV114318 ;
INJEC IBG22r PV114411 114411 0 0 0.00400 0.00000 0.05 0.03 Iprate_PV114411 Tg_PV114411 0.01 0.3 1.5 0.7 1.1 tau_PV114411 0.5 0.9 0.3 0.5 47 51.5 50.2 0.2 50.2 0.02 0 0 1 4 4 0.2 0.2 0.9 1.1 1 1 0 0.5 -0.002 0.002 0.5 0.5 0.25 4 prot_PV114411 support_PV114411 ;
INJEC IBG22r PV114415 114415 0 0 0.01000 0.00000 0.05 0.03 Iprate_PV114415 Tg_PV114415 0.01 0.3 1.5 0.7 1.1 tau_PV114415 0.5 0.9 0.3 0.5 47 51.5 50.2 0.2 50.2 0.02 0 0 1 4 4 0.2 0.2 0.9 1.1 1 1 0 0.5 -0.002 0.002 0.5 0.5 0.25 4 prot_PV114415 support_PV114415 ;
INJEC IBG22r PV114416 114416 0 0 0.00320 0.00000 0.05 0.03 Iprate_PV114416 Tg_PV114416 0.01 0.3 1.5 0.7 1.1 tau_PV114416 0.5 0.9 0.3 0.5 47 51.5 50.2 0.2 50.2 0.02 0 0 1 4 4 0.2 0.2 0.9 1.1 1 1 0 0.5 -0.002 0.002 0.5 0.5 0.25 4 prot_PV114416 support_PV114416 ;
INJEC IBG22r PV114417 114417 0 0 0.00800 0.00000 0.05 0.03 Iprate_PV114417 Tg_PV114417 0.01 0.3 1.5 0.7 1.1 tau_PV114417 0.5 0.9 0.3 0.5 47 51.5 50.2 0.2 50.2 0.02 0 0 1 4 4 0.2 0.2 0.9 1.1 1 1 0 0.5 -0.002 0.002 0.5 0.5 0.25 4 prot_PV114417 support_PV114417 ;
INJEC IBG22r PV114418 114418 0 0 0.00480 0.00000 0.05 0.03 Iprate_PV114418 Tg_PV114418 0.01 0.3 1.5 0.7 1.1 tau_PV114418 0.5 0.9 0.3 0.5 47 51.5 50.2 0.2 50.2 0.02 0 0 1 4 4 0.2 0.2 0.9 1.1 1 1 0 0.5 -0.002 0.002 0.5 0.5 0.25 4 prot_PV114418 support_PV114418 ;
INJEC IBG22r PV114511 114511 0 0 0.00400 0.00000 0.05 0.03 Iprate_PV114511 Tg_PV114511 0.01 0.3 1.5 0.7 1.1 tau_PV114511 0.5 0.9 0.3 0.5 47 51.5 50.2 0.2 50.2 0.02 0 0 1 4 4 0.2 0.2 0.9 1.1 1 1 0 0.5 -0.002 0.002 0.5 0.5 0.25 4 prot_PV114511 support_PV114511 ;
INJEC IBG22r PV114515 114515 0 0 0.01000 0.00000 0.05 0.03 Iprate_PV114515 Tg_PV114515 0.01 0.3 1.5 0.7 1.1 tau_PV114515 0.5 0.9 0.3 0.5 47 51.5 50.2 0.2 50.2 0.02 0 0 1 4 4 0.2 0.2 0.9 1.1 1 1 0 0.5 -0.002 0.002 0.5 0.5 0.25 4 prot_PV114515 support_PV114515 ;
INJEC IBG22r PV114516 114516 0 0 0.00320 0.00000 0.05 0.03 Iprate_PV114516 Tg_PV114516 0.01 0.3 1.5 0.7 1.1 tau_PV114516 0.5 0.9 0.3 0.5 47 51.5 50.2 0.2 50.2 0.02 0 0 1 4 4 0.2 0.2 0.9 1.1 1 1 0 0.5 -0.002 0.002 0.5 0.5 0.25 4 prot_PV114516 support_PV114516 ;
INJEC IBG22r PV114517 114517 0 0 0.00800 0.00000 0.05 0.03 Iprate_PV114517 Tg_PV114517 0.01 0.3 1.5 0.7 1.1 tau_PV114517 0.5 0.9 0.3 0.5 47 51.5 50.2 0.2 50.2 0.02 0 0 1 4 4 0.2 0.2 0.9 1.1 1 1 0 0.5 -0.002 0.002 0.5 0.5 0.25 4 prot_PV114517 support_PV114517 ;
INJEC IBG22r PV114518 114518 0 0 0.00480 0.00000 0.05 0.03 Iprate_PV114518 Tg_PV114518 0.01 0.3 1.5 0.7 1.1 tau_PV114518 0.5 0.9 0.3 0.5 47 51.5 50.2 0.2 50.2 0.02 0 0 1 4 4 0.2 0.2 0.9 1.1 1 1 0 0.5 -0.002 0.002 0.5 0.5 0.25 4 prot_PV114518 support_PV114518 ;
INJEC IBG22r PV114611 114611 0 0 0.00400 0.00000 0.05 0.03 Iprate_PV114611 Tg_PV114611 0.01 0.3 1.5 0.7 1.1 tau_PV114611 0.5 0.9 0.3 0.5 47 51.5 50.2 0.2 50.2 0.02 0 0 1 4 4 0.2 0.2 0.9 1.1 1 1 0 0.5 -0.002 0.002 0.5 0.5 0.25 4 prot_PV114611 support_PV114611 ;
INJEC IBG22r PV114615 114615 0 0 0.01000 0.00000 0.05 0.03 Iprate_PV114615 Tg_PV114615 0.01 0.3 1.5 0.7 1.1 tau_PV114615 0.5 0.9 0.3 0.5 47 51.5 50.2 0.2 50.2 0.02 0 0 1 4 4 0.2 0.2 0.9 1.1 1 1 0 0.5 -0.002 0.002 0.5 0.5 0.25 4 prot_PV114615 support_PV114615 ;
INJEC IBG22r PV114616 114616 0 0 0.00320 0.00000 0.05 0.03 Iprate_PV114616 Tg_PV114616 0.01 0.3 1.5 0.7 1.1 tau_PV114616 0.5 0.9 0.3 0.5 47 51.5 50.2 0.2 50.2 0.02 0 0 1 4 4 0.2 0.2 0.9 1.1 1 1 0 0.5 -0.002 0.002 0.5 0.5 0.25 4 prot_PV114616 support_PV114616 ;
INJEC IBG22r PV114617 114617 0 0 0.00800 0.00000 0.05 0.03 Iprate_PV114617 Tg_PV114617 0.01 0.3 1.5 0.7 1.1 tau_PV114617 0.5 0.9 0.3 0.5 47 51.5 50.2 0.2 50.2 0.02 0 0 1 4 4 0.2 0.2 0.9 1.1 1 1 0 0.5 -0.002 0.002 0.5 0.5 0.25 4 prot_PV114617 support_PV114617 ;
INJEC IBG22r PV114618 114618 0 0 0.00480 0.00000 0.05 0.03 Iprate_PV114618 Tg_PV114618 0.01 0.3 1.5 0.7 1.1 tau_PV114618 0.5 0.9 0.3 0.5 47 51.5 50.2 0.2 50.2 0.02 0 0 1 4 4 0.2 0.2 0.9 1.1 1 1 0 0.5 -0.002 0.002 0.5 0.5 0.25 4 prot_PV114618 support_PV114618 ;
INJEC IBG22r PV114711 114711 0 0 0.00400 0.00000 0.05 0.03 Iprate_PV114711 Tg_PV114711 0.01 0.3 1.5 0.7 1.1 tau_PV114711 0.5 0.9 0.3 0.5 47 51.5 50.2 0.2 50.2 0.02 0 0 1 4 4 0.2 0.2 0.9 1.1 1 1 0 0.5 -0.002 0.002 0.5 0.5 0.25 4 prot_PV114711 support_PV114711 ;
INJEC IBG22r PV114715 114715 0 0 0.01000 0.00000 0.05 0.03 Iprate_PV114715 Tg_PV114715 0.01 0.3 1.5 0.7 1.1 tau_PV114715 0.5 0.9 0.3 0.5 47 51.5 50.2 0.2 50.2 0.02 0 0 1 4 4 0.2 0.2 0.9 1.1 1 1 0 0.5 -0.002 0.002 0.5 0.5 0.25 4 prot_PV114715 support_PV114715 ;
INJEC IBG22r PV114716 114716 0 0 0.00320 0.00000 0.05 0.03 Iprate_PV114716 Tg_PV114716 0.01 0.3 1.5 0.7 1.1 tau_PV114716 0.5 0.9 0.3 0.5 47 51.5 50.2 0.2 50.2 0.02 0 0 1 4 4 0.2 0.2 0.9 1.1 1 1 0 0.5 -0.002 0.002 0.5 0.5 0.25 4 prot_PV114716 support_PV114716 ;
INJEC IBG22r PV114717 114717 0 0 0.00800 0.00000 0.05 0.03 Iprate_PV114717 Tg_PV114717 0.01 0.3 1.5 0.7 1.1 tau_PV114717 0.5 0.9 0.3 0.5 47 51.5 50.2 0.2 50.2 0.02 0 0 1 4 4 0.2 0.2 0.9 1.1 1 1 0 0.5 -0.002 0.002 0.5 0.5 0.25 4 prot_PV114717 support_PV114717 ;
INJEC IBG22r PV114718 114718 0 0 0.00480 0.00000 0.05 0.03 Iprate_PV114718 Tg_PV114718 0.01 0.3 1.5 0.7 1.1 tau_PV114718 0.5 0.9 0.3 0.5 47 51.5 50.2 0.2 50.2 0.02 0 0 1 4 4 0.2 0.2 0.9 1.1 1 1 0 0.5 -0.002 0.002 0.5 0.5 0.25 4 prot_PV114718 support_PV114718 ;
INJEC IBG22r PV114811 114811 0 0 0.00400 0.00000 0.05 0.03 Iprate_PV114811 Tg_PV114811 0.01 0.3 1.5 0.7 1.1 tau_PV114811 0.5 0.9 0.3 0.5 47 51.5 50.2 0.2 50.2 0.02 0 0 1 4 4 0.2 0.2 0.9 1.1 1 1 0 0.5 -0.002 0.002 0.5 0.5 0.25 4 prot_PV114811 support_PV114811 ;
INJEC IBG22r PV114815 114815 0 0 0.01000 0.00000 0.05 0.03 Iprate_PV114815 Tg_PV114815 0.01 0.3 1.5 0.7 1.1 tau_PV114815 0.5 0.9 0.3 0.5 47 51.5 50.2 0.2 50.2 0.02 0 0 1 4 4 0.2 0.2 0.9 1.1 1 1 0 0.5 -0.002 0.002 0.5 0.5 0.25 4 prot_PV114815 support_PV114815 ;
INJEC IBG22r PV114816 114816 0 0 0.00320 0.00000 0.05 0.03 Iprate_PV114816 Tg_PV114816 0.01 0.3 1.5 0.7 1.1 tau_PV114816 0.5 0.9 0.3 0.5 47 51.5 50.2 0.2 50.2 0.02 0 0 1 4 4 0.2 0.2 0.9 1.1 1 1 0 0.5 -0.002 0.002 0.5 0.5 0.25 4 prot_PV114816 support_PV114816 ;
INJEC IBG22r PV114817 114817 0 0 0.00800 0.00000 0.05 0.03 Iprate_PV114817 Tg_PV114817 0.01 0.3 1.5 0.7 1.1 tau_PV114817 0.5 0.9 0.3 0.5 47 51.5 50.2 0.2 50.2 0.02 0 0 1 4 4 0.2 0.2 0.9 1.1 1 1 0 0.5 -0.002 0.002 0.5 0.5 0.25 4 prot_PV114817 support_PV114817 ;
INJEC IBG22r PV114818 114818 0 0 0.00480 0.00000 0.05 0.03 Iprate_PV114818 Tg_PV114818 0.01 0.3 1.5 0.7 1.1 tau_PV114818 0.5 0.9 0.3 0.5 47 51.5 50.2 0.2 50.2 0.02 0 0 1 4 4 0.2 0.2 0.9 1.1 1 1 0 0.5 -0.002 0.002 0.5 0.5 0.25 4 prot_PV114818 support_PV114818 ;
INJEC IBG22r PV114911 114911 0 0 0.00400 0.00000 0.05 0.03 Iprate_PV114911 Tg_PV114911 0.01 0.3 1.5 0.7 1.1 tau_PV114911 0.5 0.9 0.3 0.5 47 51.5 50.2 0.2 50.2 0.02 0 0 1 4 4 0.2 0.2 0.9 1.1 1 1 0 0.5 -0.002 0.002 0.5 0.5 0.25 4 prot_PV114911 support_PV114911 ;
INJEC IBG22r PV114915 114915 0 0 0.01000 0.00000 0.05 0.03 Iprate_PV114915 Tg_PV114915 0.01 0.3 1.5 0.7 1.1 tau_PV114915 0.5 0.9 0.3 0.5 47 51.5 50.2 0.2 50.2 0.02 0 0 1 4 4 0.2 0.2 0.9 1.1 1 1 0 0.5 -0.002 0.002 0.5 0.5 0.25 4 prot_PV114915 support_PV114915 ;
INJEC IBG22r PV114916 114916 0 0 0.00320 0.00000 0.05 0.03 Iprate_PV114916 Tg_PV114916 0.01 0.3 1.5 0.7 1.1 tau_PV114916 0.5 0.9 0.3 0.5 47 51.5 50.2 0.2 50.2 0.02 0 0 1 4 4 0.2 0.2 0.9 1.1 1 1 0 0.5 -0.002 0.002 0.5 0.5 0.25 4 prot_PV114916 support_PV114916 ;
INJEC IBG22r PV114917 114917 0 0 0.00800 0.00000 0.05 0.03 Iprate_PV114917 Tg_PV114917 0.01 0.3 1.5 0.7 1.1 tau_PV114917 0.5 0.9 0.3 0.5 47 51.5 50.2 0.2 50.2 0.02 0 0 1 4 4 0.2 0.2 0.9 1.1 1 1 0 0.5 -0.002 0.002 0.5 0.5 0.25 4 prot_PV114917 support_PV114917 ;
INJEC IBG22r PV114918 114918 0 0 0.00480 0.00000 0.05 0.03 Iprate_PV114918 Tg_PV114918 0.01 0.3 1.5 0.7 1.1 tau_PV114918 0.5 0.9 0.3 0.5 47 51.5 50.2 0.2 50.2 0.02 0 0 1 4 4 0.2 0.2 0.9 1.1 1 1 0 0.5 -0.002 0.002 0.5 0.5 0.25 4 prot_PV114918 support_PV114918 ;
INJEC IBG22r PV115011 115011 0 0 0.00400 0.00000 0.05 0.03 Iprate_PV115011 Tg_PV115011 0.01 0.3 1.5 0.7 1.1 tau_PV115011 0.5 0.9 0.3 0.5 47 51.5 50.2 0.2 50.2 0.02 0 0 1 4 4 0.2 0.2 0.9 1.1 1 1 0 0.5 -0.002 0.002 0.5 0.5 0.25 4 prot_PV115011 support_PV115011 ;
INJEC IBG22r PV115015 115015 0 0 0.01000 0.00000 0.05 0.03 Iprate_PV115015 Tg_PV115015 0.01 0.3 1.5 0.7 1.1 tau_PV115015 0.5 0.9 0.3 0.5 47 51.5 50.2 0.2 50.2 0.02 0 0 1 4 4 0.2 0.2 0.9 1.1 1 1 0 0.5 -0.002 0.002 0.5 0.5 0.25 4 prot_PV115015 support_PV115015 ;
INJEC IBG22r PV115016 115016 0 0 0.00320 0.00000 0.05 0.03 Iprate_PV115016 Tg_PV115016 0.01 0.3 1.5 0.7 1.1 tau_PV115016 0.5 0.9 0.3 0.5 47 51.5 50.2 0.2 50.2 0.02 0 0 1 4 4 0.2 0.2 0.9 1.1 1 1 0 0.5 -0.002 0.002 0.5 0.5 0.25 4 prot_PV115016 support_PV115016 ;
INJEC IBG22r PV115017 115017 0 0 0.00800 0.00000 0.05 0.03 Iprate_PV115017 Tg_PV115017 0.01 0.3 1.5 0.7 1.1 tau_PV115017 0.5 0.9 0.3 0.5 47 51.5 50.2 0.2 50.2 0.02 0 0 1 4 4 0.2 0.2 0.9 1.1 1 1 0 0.5 -0.002 0.002 0.5 0.5 0.25 4 prot_PV115017 support_PV115017 ;
INJEC IBG22r PV115018 115018 0 0 0.00480 0.00000 0.05 0.03 Iprate_PV115018 Tg_PV115018 0.01 0.3 1.5 0.7 1.1 tau_PV115018 0.5 0.9 0.3 0.5 47 51.5 50.2 0.2 50.2 0.02 0 0 1 4 4 0.2 0.2 0.9 1.1 1 1 0 0.5 -0.002 0.002 0.5 0.5 0.25 4 prot_PV115018 support_PV115018 ;
INJEC IBG22r PV115111 115111 0 0 0.00400 0.00000 0.05 0.03 Iprate_PV115111 Tg_PV115111 0.01 0.3 1.5 0.7 1.1 tau_PV115111 0.5 0.9 0.3 0.5 47 51.5 50.2 0.2 50.2 0.02 0 0 1 4 4 0.2 0.2 0.9 1.1 1 1 0 0.5 -0.002 0.002 0.5 0.5 0.25 4 prot_PV115111 support_PV115111 ;
INJEC IBG22r PV115115 115115 0 0 0.01000 0.00000 0.05 0.03 Iprate_PV115115 Tg_PV115115 0.01 0.3 1.5 0.7 1.1 tau_PV115115 0.5 0.9 0.3 0.5 47 51.5 50.2 0.2 50.2 0.02 0 0 1 4 4 0.2 0.2 0.9 1.1 1 1 0 0.5 -0.002 0.002 0.5 0.5 0.25 4 prot_PV115115 support_PV115115 ;
INJEC IBG22r PV115116 115116 0 0 0.00320 0.00000 0.05 0.03 Iprate_PV115116 Tg_PV115116 0.01 0.3 1.5 0.7 1.1 tau_PV115116 0.5 0.9 0.3 0.5 47 51.5 50.2 0.2 50.2 0.02 0 0 1 4 4 0.2 0.2 0.9 1.1 1 1 0 0.5 -0.002 0.002 0.5 0.5 0.25 4 prot_PV115116 support_PV115116 ;
INJEC IBG22r PV115117 115117 0 0 0.00800 0.00000 0.05 0.03 Iprate_PV115117 Tg_PV115117 0.01 0.3 1.5 0.7 1.1 tau_PV115117 0.5 0.9 0.3 0.5 47 51.5 50.2 0.2 50.2 0.02 0 0 1 4 4 0.2 0.2 0.9 1.1 1 1 0 0.5 -0.002 0.002 0.5 0.5 0.25 4 prot_PV115117 support_PV115117 ;
INJEC IBG22r PV115118 115118 0 0 0.00480 0.00000 0.05 0.03 Iprate_PV115118 Tg_PV115118 0.01 0.3 1.5 0.7 1.1 tau_PV115118 0.5 0.9 0.3 0.5 47 51.5 50.2 0.2 50.2 0.02 0 0 1 4 4 0.2 0.2 0.9 1.1 1 1 0 0.5 -0.002 0.002 0.5 0.5 0.25 4 prot_PV115118 support_PV115118 ;
INJEC IBG22r PV115211 115211 0 0 0.00400 0.00000 0.05 0.03 Iprate_PV115211 Tg_PV115211 0.01 0.3 1.5 0.7 1.1 tau_PV115211 0.5 0.9 0.3 0.5 47 51.5 50.2 0.2 50.2 0.02 0 0 1 4 4 0.2 0.2 0.9 1.1 1 1 0 0.5 -0.002 0.002 0.5 0.5 0.25 4 prot_PV115211 support_PV115211 ;
INJEC IBG22r PV115215 115215 0 0 0.01000 0.00000 0.05 0.03 Iprate_PV115215 Tg_PV115215 0.01 0.3 1.5 0.7 1.1 tau_PV115215 0.5 0.9 0.3 0.5 47 51.5 50.2 0.2 50.2 0.02 0 0 1 4 4 0.2 0.2 0.9 1.1 1 1 0 0.5 -0.002 0.002 0.5 0.5 0.25 4 prot_PV115215 support_PV115215 ;
INJEC IBG22r PV115216 115216 0 0 0.00320 0.00000 0.05 0.03 Iprate_PV115216 Tg_PV115216 0.01 0.3 1.5 0.7 1.1 tau_PV115216 0.5 0.9 0.3 0.5 47 51.5 50.2 0.2 50.2 0.02 0 0 1 4 4 0.2 0.2 0.9 1.1 1 1 0 0.5 -0.002 0.002 0.5 0.5 0.25 4 prot_PV115216 support_PV115216 ;
INJEC IBG22r PV115217 115217 0 0 0.00800 0.00000 0.05 0.03 Iprate_PV115217 Tg_PV115217 0.01 0.3 1.5 0.7 1.1 tau_PV115217 0.5 0.9 0.3 0.5 47 51.5 50.2 0.2 50.2 0.02 0 0 1 4 4 0.2 0.2 0.9 1.1 1 1 0 0.5 -0.002 0.002 0.5 0.5 0.25 4 prot_PV115217 support_PV115217 ;
INJEC IBG22r PV115218 115218 0 0 0.00480 0.00000 0.05 0.03 Iprate_PV115218 Tg_PV115218 0.01 0.3 1.5 0.7 1.1 tau_PV115218 0.5 0.9 0.3 0.5 47 51.5 50.2 0.2 50.2 0.02 0 0 1 4 4 0.2 0.2 0.9 1.1 1 1 0 0.5 -0.002 0.002 0.5 0.5 0.25 4 prot_PV115218 support_PV115218 ;
INJEC IBG22r PV115311 115311 0 0 0.00667 0.00000 0.05 0.03 Iprate_PV115311 Tg_PV115311 0.01 0.3 1.5 0.7 1.1 tau_PV115311 0.5 0.9 0.3 0.5 47 51.5 50.2 0.2 50.2 0.02 0 0 1 4 4 0.2 0.2 0.9 1.1 1 1 0 0.5 -0.002 0.002 0.5 0.5 0.25 4 prot_PV115311 support_PV115311 ;
INJEC IBG22r PV115315 115315 0 0 0.01667 0.00000 0.05 0.03 Iprate_PV115315 Tg_PV115315 0.01 0.3 1.5 0.7 1.1 tau_PV115315 0.5 0.9 0.3 0.5 47 51.5 50.2 0.2 50.2 0.02 0 0 1 4 4 0.2 0.2 0.9 1.1 1 1 0 0.5 -0.002 0.002 0.5 0.5 0.25 4 prot_PV115315 support_PV115315 ;
INJEC IBG22r PV115316 115316 0 0 0.00533 0.00000 0.05 0.03 Iprate_PV115316 Tg_PV115316 0.01 0.3 1.5 0.7 1.1 tau_PV115316 0.5 0.9 0.3 0.5 47 51.5 50.2 0.2 50.2 0.02 0 0 1 4 4 0.2 0.2 0.9 1.1 1 1 0 0.5 -0.002 0.002 0.5 0.5 0.25 4 prot_PV115316 support_PV115316 ;
INJEC IBG22r PV115317 115317 0 0 0.01333 0.00000 0.05 0.03 Iprate_PV115317 Tg_PV115317 0.01 0.3 1.5 0.7 1.1 tau_PV115317 0.5 0.9 0.3 0.5 47 51.5 50.2 0.2 50.2 0.02 0 0 1 4 4 0.2 0.2 0.9 1.1 1 1 0 0.5 -0.002 0.002 0.5 0.5 0.25 4 prot_PV115317 support_PV115317 ;
INJEC IBG22r PV115318 115318 0 0 0.00800 0.00000 0.05 0.03 Iprate_PV115318 Tg_PV115318 0.01 0.3 1.5 0.7 1.1 tau_PV115318 0.5 0.9 0.3 0.5 47 51.5 50.2 0.2 50.2 0.02 0 0 1 4 4 0.2 0.2 0.9 1.1 1 1 0 0.5 -0.002 0.002 0.5 0.5 0.25 4 prot_PV115318 support_PV115318 ;
INJEC IBG22r PV115411 115411 0 0 0.00667 0.00000 0.05 0.03 Iprate_PV115411 Tg_PV115411 0.01 0.3 1.5 0.7 1.1 tau_PV115411 0.5 0.9 0.3 0.5 47 51.5 50.2 0.2 50.2 0.02 0 0 1 4 4 0.2 0.2 0.9 1.1 1 1 0 0.5 -0.002 0.002 0.5 0.5 0.25 4 prot_PV115411 support_PV115411 ;
INJEC IBG22r PV115415 115415 0 0 0.01667 0.00000 0.05 0.03 Iprate_PV115415 Tg_PV115415 0.01 0.3 1.5 0.7 1.1 tau_PV115415 0.5 0.9 0.3 0.5 47 51.5 50.2 0.2 50.2 0.02 0 0 1 4 4 0.2 0.2 0.9 1.1 1 1 0 0.5 -0.002 0.002 0.5 0.5 0.25 4 prot_PV115415 support_PV115415 ;
INJEC IBG22r PV115416 115416 0 0 0.00533 0.00000 0.05 0.03 Iprate_PV115416 Tg_PV115416 0.01 0.3 1.5 0.7 1.1 tau_PV115416 0.5 0.9 0.3 0.5 47 51.5 50.2 0.2 50.2 0.02 0 0 1 4 4 0.2 0.2 0.9 1.1 1 1 0 0.5 -0.002 0.002 0.5 0.5 0.25 4 prot_PV115416 support_PV115416 ;
INJEC IBG22r PV115417 115417 0 0 0.01333 0.00000 0.05 0.03 Iprate_PV115417 Tg_PV115417 0.01 0.3 1.5 0.7 1.1 tau_PV115417 0.5 0.9 0.3 0.5 47 51.5 50.2 0.2 50.2 0.02 0 0 1 4 4 0.2 0.2 0.9 1.1 1 1 0 0.5 -0.002 0.002 0.5 0.5 0.25 4 prot_PV115417 support_PV115417 ;
INJEC IBG22r PV115418 115418 0 0 0.00800 0.00000 0.05 0.03 Iprate_PV115418 Tg_PV115418 0.01 0.3 1.5 0.7 1.1 tau_PV115418 0.5 0.9 0.3 0.5 47 51.5 50.2 0.2 50.2 0.02 0 0 1 4 4 0.2 0.2 0.9 1.1 1 1 0 0.5 -0.002 0.002 0.5 0.5 0.25 4 prot_PV115418 support_PV115418 ;
INJEC IBG22r PV115511 115511 0 0 0.00667 0.00000 0.05 0.03 Iprate_PV115511 Tg_PV115511 0.01 0.3 1.5 0.7 1.1 tau_PV115511 0.5 0.9 0.3 0.5 47 51.5 50.2 0.2 50.2 0.02 0 0 1 4 4 0.2 0.2 0.9 1.1 1 1 0 0.5 -0.002 0.002 0.5 0.5 0.25 4 prot_PV115511 support_PV115511 ;
INJEC IBG22r PV115515 115515 0 0 0.01667 0.00000 0.05 0.03 Iprate_PV115515 Tg_PV115515 0.01 0.3 1.5 0.7 1.1 tau_PV115515 0.5 0.9 0.3 0.5 47 51.5 50.2 0.2 50.2 0.02 0 0 1 4 4 0.2 0.2 0.9 1.1 1 1 0 0.5 -0.002 0.002 0.5 0.5 0.25 4 prot_PV115515 support_PV115515 ;
INJEC IBG22r PV115516 115516 0 0 0.00533 0.00000 0.05 0.03 Iprate_PV115516 Tg_PV115516 0.01 0.3 1.5 0.7 1.1 tau_PV115516 0.5 0.9 0.3 0.5 47 51.5 50.2 0.2 50.2 0.02 0 0 1 4 4 0.2 0.2 0.9 1.1 1 1 0 0.5 -0.002 0.002 0.5 0.5 0.25 4 prot_PV115516 support_PV115516 ;
INJEC IBG22r PV115517 115517 0 0 0.01333 0.00000 0.05 0.03 Iprate_PV115517 Tg_PV115517 0.01 0.3 1.5 0.7 1.1 tau_PV115517 0.5 0.9 0.3 0.5 47 51.5 50.2 0.2 50.2 0.02 0 0 1 4 4 0.2 0.2 0.9 1.1 1 1 0 0.5 -0.002 0.002 0.5 0.5 0.25 4 prot_PV115517 support_PV115517 ;
INJEC IBG22r PV115518 115518 0 0 0.00800 0.00000 0.05 0.03 Iprate_PV115518 Tg_PV115518 0.01 0.3 1.5 0.7 1.1 tau_PV115518 0.5 0.9 0.3 0.5 47 51.5 50.2 0.2 50.2 0.02 0 0 1 4 4 0.2 0.2 0.9 1.1 1 1 0 0.5 -0.002 0.002 0.5 0.5 0.25 4 prot_PV115518 support_PV115518 ;
INJEC IBG22r PV115611 115611 0 0 0.00667 0.00000 0.05 0.03 Iprate_PV115611 Tg_PV115611 0.01 0.3 1.5 0.7 1.1 tau_PV115611 0.5 0.9 0.3 0.5 47 51.5 50.2 0.2 50.2 0.02 0 0 1 4 4 0.2 0.2 0.9 1.1 1 1 0 0.5 -0.002 0.002 0.5 0.5 0.25 4 prot_PV115611 support_PV115611 ;
INJEC IBG22r PV115615 115615 0 0 0.01667 0.00000 0.05 0.03 Iprate_PV115615 Tg_PV115615 0.01 0.3 1.5 0.7 1.1 tau_PV115615 0.5 0.9 0.3 0.5 47 51.5 50.2 0.2 50.2 0.02 0 0 1 4 4 0.2 0.2 0.9 1.1 1 1 0 0.5 -0.002 0.002 0.5 0.5 0.25 4 prot_PV115615 support_PV115615 ;
INJEC IBG22r PV115616 115616 0 0 0.00533 0.00000 0.05 0.03 Iprate_PV115616 Tg_PV115616 0.01 0.3 1.5 0.7 1.1 tau_PV115616 0.5 0.9 0.3 0.5 47 51.5 50.2 0.2 50.2 0.02 0 0 1 4 4 0.2 0.2 0.9 1.1 1 1 0 0.5 -0.002 0.002 0.5 0.5 0.25 4 prot_PV115616 support_PV115616 ;
INJEC IBG22r PV115617 115617 0 0 0.01333 0.00000 0.05 0.03 Iprate_PV115617 Tg_PV115617 0.01 0.3 1.5 0.7 1.1 tau_PV115617 0.5 0.9 0.3 0.5 47 51.5 50.2 0.2 50.2 0.02 0 0 1 4 4 0.2 0.2 0.9 1.1 1 1 0 0.5 -0.002 0.002 0.5 0.5 0.25 4 prot_PV115617 support_PV115617 ;
INJEC IBG22r PV115618 115618 0 0 0.00800 0.00000 0.05 0.03 Iprate_PV115618 Tg_PV115618 0.01 0.3 1.5 0.7 1.1 tau_PV115618 0.5 0.9 0.3 0.5 47 51.5 50.2 0.2 50.2 0.02 0 0 1 4 4 0.2 0.2 0.9 1.1 1 1 0 0.5 -0.002 0.002 0.5 0.5 0.25 4 prot_PV115618 support_PV115618 ;
INJEC IBG22r PV115711 115711 0 0 0.00667 0.00000 0.05 0.03 Iprate_PV115711 Tg_PV115711 0.01 0.3 1.5 0.7 1.1 tau_PV115711 0.5 0.9 0.3 0.5 47 51.5 50.2 0.2 50.2 0.02 0 0 1 4 4 0.2 0.2 0.9 1.1 1 1 0 0.5 -0.002 0.002 0.5 0.5 0.25 4 prot_PV115711 support_PV115711 ;
INJEC IBG22r PV115715 115715 0 0 0.01667 0.00000 0.05 0.03 Iprate_PV115715 Tg_PV115715 0.01 0.3 1.5 0.7 1.1 tau_PV115715 0.5 0.9 0.3 0.5 47 51.5 50.2 0.2 50.2 0.02 0 0 1 4 4 0.2 0.2 0.9 1.1 1 1 0 0.5 -0.002 0.002 0.5 0.5 0.25 4 prot_PV115715 support_PV115715 ;
INJEC IBG22r PV115716 115716 0 0 0.00533 0.00000 0.05 0.03 Iprate_PV115716 Tg_PV115716 0.01 0.3 1.5 0.7 1.1 tau_PV115716 0.5 0.9 0.3 0.5 47 51.5 50.2 0.2 50.2 0.02 0 0 1 4 4 0.2 0.2 0.9 1.1 1 1 0 0.5 -0.002 0.002 0.5 0.5 0.25 4 prot_PV115716 support_PV115716 ;
INJEC IBG22r PV115717 115717 0 0 0.01333 0.00000 0.05 0.03 Iprate_PV115717 Tg_PV115717 0.01 0.3 1.5 0.7 1.1 tau_PV115717 0.5 0.9 0.3 0.5 47 51.5 50.2 0.2 50.2 0.02 0 0 1 4 4 0.2 0.2 0.9 1.1 1 1 0 0.5 -0.002 0.002 0.5 0.5 0.25 4 prot_PV115717 support_PV115717 ;
INJEC IBG22r PV115718 115718 0 0 0.00800 0.00000 0.05 0.03 Iprate_PV115718 Tg_PV115718 0.01 0.3 1.5 0.7 1.1 tau_PV115718 0.5 0.9 0.3 0.5 47 51.5 50.2 0.2 50.2 0.02 0 0 1 4 4 0.2 0.2 0.9 1.1 1 1 0 0.5 -0.002 0.002 0.5 0.5 0.25 4 prot_PV115718 support_PV115718 ;
INJEC IBG22r PV115811 115811 0 0 0.00667 0.00000 0.05 0.03 Iprate_PV115811 Tg_PV115811 0.01 0.3 1.5 0.7 1.1 tau_PV115811 0.5 0.9 0.3 0.5 47 51.5 50.2 0.2 50.2 0.02 0 0 1 4 4 0.2 0.2 0.9 1.1 1 1 0 0.5 -0.002 0.002 0.5 0.5 0.25 4 prot_PV115811 support_PV115811 ;
INJEC IBG22r PV115815 115815 0 0 0.01667 0.00000 0.05 0.03 Iprate_PV115815 Tg_PV115815 0.01 0.3 1.5 0.7 1.1 tau_PV115815 0.5 0.9 0.3 0.5 47 51.5 50.2 0.2 50.2 0.02 0 0 1 4 4 0.2 0.2 0.9 1.1 1 1 0 0.5 -0.002 0.002 0.5 0.5 0.25 4 prot_PV115815 support_PV115815 ;
INJEC IBG22r PV115816 115816 0 0 0.00533 0.00000 0.05 0.03 Iprate_PV115816 Tg_PV115816 0.01 0.3 1.5 0.7 1.1 tau_PV115816 0.5 0.9 0.3 0.5 47 51.5 50.2 0.2 50.2 0.02 0 0 1 4 4 0.2 0.2 0.9 1.1 1 1 0 0.5 -0.002 0.002 0.5 0.5 0.25 4 prot_PV115816 support_PV115816 ;
INJEC IBG22r PV115817 115817 0 0 0.01333 0.00000 0.05 0.03 Iprate_PV115817 Tg_PV115817 0.01 0.3 1.5 0.7 1.1 tau_PV115817 0.5 0.9 0.3 0.5 47 51.5 50.2 0.2 50.2 0.02 0 0 1 4 4 0.2 0.2 0.9 1.1 1 1 0 0.5 -0.002 0.002 0.5 0.5 0.25 4 prot_PV115817 support_PV115817 ;
INJEC IBG22r PV115818 115818 0 0 0.00800 0.00000 0.05 0.03 Iprate_PV115818 Tg_PV115818 0.01 0.3 1.5 0.7 1.1 tau_PV115818 0.5 0.9 0.3 0.5 47 51.5 50.2 0.2 50.2 0.02 0 0 1 4 4 0.2 0.2 0.9 1.1 1 1 0 0.5 -0.002 0.002 0.5 0.5 0.25 4 prot_PV115818 support_PV115818 ;
INJEC IBG22r PV115911 115911 0 0 0.00667 0.00000 0.05 0.03 Iprate_PV115911 Tg_PV115911 0.01 0.3 1.5 0.7 1.1 tau_PV115911 0.5 0.9 0.3 0.5 47 51.5 50.2 0.2 50.2 0.02 0 0 1 4 4 0.2 0.2 0.9 1.1 1 1 0 0.5 -0.002 0.002 0.5 0.5 0.25 4 prot_PV115911 support_PV115911 ;
INJEC IBG22r PV115915 115915 0 0 0.01667 0.00000 0.05 0.03 Iprate_PV115915 Tg_PV115915 0.01 0.3 1.5 0.7 1.1 tau_PV115915 0.5 0.9 0.3 0.5 47 51.5 50.2 0.2 50.2 0.02 0 0 1 4 4 0.2 0.2 0.9 1.1 1 1 0 0.5 -0.002 0.002 0.5 0.5 0.25 4 prot_PV115915 support_PV115915 ;
INJEC IBG22r PV115916 115916 0 0 0.00533 0.00000 0.05 0.03 Iprate_PV115916 Tg_PV115916 0.01 0.3 1.5 0.7 1.1 tau_PV115916 0.5 0.9 0.3 0.5 47 51.5 50.2 0.2 50.2 0.02 0 0 1 4 4 0.2 0.2 0.9 1.1 1 1 0 0.5 -0.002 0.002 0.5 0.5 0.25 4 prot_PV115916 support_PV115916 ;
INJEC IBG22r PV115917 115917 0 0 0.01333 0.00000 0.05 0.03 Iprate_PV115917 Tg_PV115917 0.01 0.3 1.5 0.7 1.1 tau_PV115917 0.5 0.9 0.3 0.5 47 51.5 50.2 0.2 50.2 0.02 0 0 1 4 4 0.2 0.2 0.9 1.1 1 1 0 0.5 -0.002 0.002 0.5 0.5 0.25 4 prot_PV115917 support_PV115917 ;
INJEC IBG22r PV115918 115918 0 0 0.00800 0.00000 0.05 0.03 Iprate_PV115918 Tg_PV115918 0.01 0.3 1.5 0.7 1.1 tau_PV115918 0.5 0.9 0.3 0.5 47 51.5 50.2 0.2 50.2 0.02 0 0 1 4 4 0.2 0.2 0.9 1.1 1 1 0 0.5 -0.002 0.002 0.5 0.5 0.25 4 prot_PV115918 support_PV115918 ;
INJEC IBG22r PV116011 116011 0 0 0.00667 0.00000 0.05 0.03 Iprate_PV116011 Tg_PV116011 0.01 0.3 1.5 0.7 1.1 tau_PV116011 0.5 0.9 0.3 0.5 47 51.5 50.2 0.2 50.2 0.02 0 0 1 4 4 0.2 0.2 0.9 1.1 1 1 0 0.5 -0.002 0.002 0.5 0.5 0.25 4 prot_PV116011 support_PV116011 ;
INJEC IBG22r PV116015 116015 0 0 0.01667 0.00000 0.05 0.03 Iprate_PV116015 Tg_PV116015 0.01 0.3 1.5 0.7 1.1 tau_PV116015 0.5 0.9 0.3 0.5 47 51.5 50.2 0.2 50.2 0.02 0 0 1 4 4 0.2 0.2 0.9 1.1 1 1 0 0.5 -0.002 0.002 0.5 0.5 0.25 4 prot_PV116015 support_PV116015 ;
INJEC IBG22r PV116016 116016 0 0 0.00533 0.00000 0.05 0.03 Iprate_PV116016 Tg_PV116016 0.01 0.3 1.5 0.7 1.1 tau_PV116016 0.5 0.9 0.3 0.5 47 51.5 50.2 0.2 50.2 0.02 0 0 1 4 4 0.2 0.2 0.9 1.1 1 1 0 0.5 -0.002 0.002 0.5 0.5 0.25 4 prot_PV116016 support_PV116016 ;
INJEC IBG22r PV116017 116017 0 0 0.01333 0.00000 0.05 0.03 Iprate_PV116017 Tg_PV116017 0.01 0.3 1.5 0.7 1.1 tau_PV116017 0.5 0.9 0.3 0.5 47 51.5 50.2 0.2 50.2 0.02 0 0 1 4 4 0.2 0.2 0.9 1.1 1 1 0 0.5 -0.002 0.002 0.5 0.5 0.25 4 prot_PV116017 support_PV116017 ;
INJEC IBG22r PV116018 116018 0 0 0.00800 0.00000 0.05 0.03 Iprate_PV116018 Tg_PV116018 0.01 0.3 1.5 0.7 1.1 tau_PV116018 0.5 0.9 0.3 0.5 47 51.5 50.2 0.2 50.2 0.02 0 0 1 4 4 0.2 0.2 0.9 1.1 1 1 0 0.5 -0.002 0.002 0.5 0.5 0.25 4 prot_PV116018 support_PV116018 ;
INJEC IBG22r PV116111 116111 0 0 0.00667 0.00000 0.05 0.03 Iprate_PV116111 Tg_PV116111 0.01 0.3 1.5 0.7 1.1 tau_PV116111 0.5 0.9 0.3 0.5 47 51.5 50.2 0.2 50.2 0.02 0 0 1 4 4 0.2 0.2 0.9 1.1 1 1 0 0.5 -0.002 0.002 0.5 0.5 0.25 4 prot_PV116111 support_PV116111 ;
INJEC IBG22r PV116115 116115 0 0 0.01667 0.00000 0.05 0.03 Iprate_PV116115 Tg_PV116115 0.01 0.3 1.5 0.7 1.1 tau_PV116115 0.5 0.9 0.3 0.5 47 51.5 50.2 0.2 50.2 0.02 0 0 1 4 4 0.2 0.2 0.9 1.1 1 1 0 0.5 -0.002 0.002 0.5 0.5 0.25 4 prot_PV116115 support_PV116115 ;
INJEC IBG22r PV116116 116116 0 0 0.00533 0.00000 0.05 0.03 Iprate_PV116116 Tg_PV116116 0.01 0.3 1.5 0.7 1.1 tau_PV116116 0.5 0.9 0.3 0.5 47 51.5 50.2 0.2 50.2 0.02 0 0 1 4 4 0.2 0.2 0.9 1.1 1 1 0 0.5 -0.002 0.002 0.5 0.5 0.25 4 prot_PV116116 support_PV116116 ;
INJEC IBG22r PV116117 116117 0 0 0.01333 0.00000 0.05 0.03 Iprate_PV116117 Tg_PV116117 0.01 0.3 1.5 0.7 1.1 tau_PV116117 0.5 0.9 0.3 0.5 47 51.5 50.2 0.2 50.2 0.02 0 0 1 4 4 0.2 0.2 0.9 1.1 1 1 0 0.5 -0.002 0.002 0.5 0.5 0.25 4 prot_PV116117 support_PV116117 ;
INJEC IBG22r PV116118 116118 0 0 0.00800 0.00000 0.05 0.03 Iprate_PV116118 Tg_PV116118 0.01 0.3 1.5 0.7 1.1 tau_PV116118 0.5 0.9 0.3 0.5 47 51.5 50.2 0.2 50.2 0.02 0 0 1 4 4 0.2 0.2 0.9 1.1 1 1 0 0.5 -0.002 0.002 0.5 0.5 0.25 4 prot_PV116118 support_PV116118 ;
INJEC IBG22r PV116211 116211 0 0 0.00667 0.00000 0.05 0.03 Iprate_PV116211 Tg_PV116211 0.01 0.3 1.5 0.7 1.1 tau_PV116211 0.5 0.9 0.3 0.5 47 51.5 50.2 0.2 50.2 0.02 0 0 1 4 4 0.2 0.2 0.9 1.1 1 1 0 0.5 -0.002 0.002 0.5 0.5 0.25 4 prot_PV116211 support_PV116211 ;
INJEC IBG22r PV116215 116215 0 0 0.01667 0.00000 0.05 0.03 Iprate_PV116215 Tg_PV116215 0.01 0.3 1.5 0.7 1.1 tau_PV116215 0.5 0.9 0.3 0.5 47 51.5 50.2 0.2 50.2 0.02 0 0 1 4 4 0.2 0.2 0.9 1.1 1 1 0 0.5 -0.002 0.002 0.5 0.5 0.25 4 prot_PV116215 support_PV116215 ;
INJEC IBG22r PV116216 116216 0 0 0.00533 0.00000 0.05 0.03 Iprate_PV116216 Tg_PV116216 0.01 0.3 1.5 0.7 1.1 tau_PV116216 0.5 0.9 0.3 0.5 47 51.5 50.2 0.2 50.2 0.02 0 0 1 4 4 0.2 0.2 0.9 1.1 1 1 0 0.5 -0.002 0.002 0.5 0.5 0.25 4 prot_PV116216 support_PV116216 ;
INJEC IBG22r PV116217 116217 0 0 0.01333 0.00000 0.05 0.03 Iprate_PV116217 Tg_PV116217 0.01 0.3 1.5 0.7 1.1 tau_PV116217 0.5 0.9 0.3 0.5 47 51.5 50.2 0.2 50.2 0.02 0 0 1 4 4 0.2 0.2 0.9 1.1 1 1 0 0.5 -0.002 0.002 0.5 0.5 0.25 4 prot_PV116217 support_PV116217 ;
INJEC IBG22r PV116218 116218 0 0 0.00800 0.00000 0.05 0.03 Iprate_PV116218 Tg_PV116218 0.01 0.3 1.5 0.7 1.1 tau_PV116218 0.5 0.9 0.3 0.5 47 51.5 50.2 0.2 50.2 0.02 0 0 1 4 4 0.2 0.2 0.9 1.1 1 1 0 0.5 -0.002 0.002 0.5 0.5 0.25 4 prot_PV116218 support_PV116218 ;
INJEC IBG22r PV116311 116311 0 0 0.00667 0.00000 0.05 0.03 Iprate_PV116311 Tg_PV116311 0.01 0.3 1.5 0.7 1.1 tau_PV116311 0.5 0.9 0.3 0.5 47 51.5 50.2 0.2 50.2 0.02 0 0 1 4 4 0.2 0.2 0.9 1.1 1 1 0 0.5 -0.002 0.002 0.5 0.5 0.25 4 prot_PV116311 support_PV116311 ;
INJEC IBG22r PV116315 116315 0 0 0.01667 0.00000 0.05 0.03 Iprate_PV116315 Tg_PV116315 0.01 0.3 1.5 0.7 1.1 tau_PV116315 0.5 0.9 0.3 0.5 47 51.5 50.2 0.2 50.2 0.02 0 0 1 4 4 0.2 0.2 0.9 1.1 1 1 0 0.5 -0.002 0.002 0.5 0.5 0.25 4 prot_PV116315 support_PV116315 ;
INJEC IBG22r PV116316 116316 0 0 0.00533 0.00000 0.05 0.03 Iprate_PV116316 Tg_PV116316 0.01 0.3 1.5 0.7 1.1 tau_PV116316 0.5 0.9 0.3 0.5 47 51.5 50.2 0.2 50.2 0.02 0 0 1 4 4 0.2 0.2 0.9 1.1 1 1 0 0.5 -0.002 0.002 0.5 0.5 0.25 4 prot_PV116316 support_PV116316 ;
INJEC IBG22r PV116317 116317 0 0 0.01333 0.00000 0.05 0.03 Iprate_PV116317 Tg_PV116317 0.01 0.3 1.5 0.7 1.1 tau_PV116317 0.5 0.9 0.3 0.5 47 51.5 50.2 0.2 50.2 0.02 0 0 1 4 4 0.2 0.2 0.9 1.1 1 1 0 0.5 -0.002 0.002 0.5 0.5 0.25 4 prot_PV116317 support_PV116317 ;
INJEC IBG22r PV116318 116318 0 0 0.00800 0.00000 0.05 0.03 Iprate_PV116318 Tg_PV116318 0.01 0.3 1.5 0.7 1.1 tau_PV116318 0.5 0.9 0.3 0.5 47 51.5 50.2 0.2 50.2 0.02 0 0 1 4 4 0.2 0.2 0.9 1.1 1 1 0 0.5 -0.002 0.002 0.5 0.5 0.25 4 prot_PV116318 support_PV116318 ;
INJEC IBG22r PV116411 116411 0 0 0.00667 0.00000 0.05 0.03 Iprate_PV116411 Tg_PV116411 0.01 0.3 1.5 0.7 1.1 tau_PV116411 0.5 0.9 0.3 0.5 47 51.5 50.2 0.2 50.2 0.02 0 0 1 4 4 0.2 0.2 0.9 1.1 1 1 0 0.5 -0.002 0.002 0.5 0.5 0.25 4 prot_PV116411 support_PV116411 ;
INJEC IBG22r PV116415 116415 0 0 0.01667 0.00000 0.05 0.03 Iprate_PV116415 Tg_PV116415 0.01 0.3 1.5 0.7 1.1 tau_PV116415 0.5 0.9 0.3 0.5 47 51.5 50.2 0.2 50.2 0.02 0 0 1 4 4 0.2 0.2 0.9 1.1 1 1 0 0.5 -0.002 0.002 0.5 0.5 0.25 4 prot_PV116415 support_PV116415 ;
INJEC IBG22r PV116416 116416 0 0 0.00533 0.00000 0.05 0.03 Iprate_PV116416 Tg_PV116416 0.01 0.3 1.5 0.7 1.1 tau_PV116416 0.5 0.9 0.3 0.5 47 51.5 50.2 0.2 50.2 0.02 0 0 1 4 4 0.2 0.2 0.9 1.1 1 1 0 0.5 -0.002 0.002 0.5 0.5 0.25 4 prot_PV116416 support_PV116416 ;
INJEC IBG22r PV116417 116417 0 0 0.01333 0.00000 0.05 0.03 Iprate_PV116417 Tg_PV116417 0.01 0.3 1.5 0.7 1.1 tau_PV116417 0.5 0.9 0.3 0.5 47 51.5 50.2 0.2 50.2 0.02 0 0 1 4 4 0.2 0.2 0.9 1.1 1 1 0 0.5 -0.002 0.002 0.5 0.5 0.25 4 prot_PV116417 support_PV116417 ;
INJEC IBG22r PV116418 116418 0 0 0.00800 0.00000 0.05 0.03 Iprate_PV116418 Tg_PV116418 0.01 0.3 1.5 0.7 1.1 tau_PV116418 0.5 0.9 0.3 0.5 47 51.5 50.2 0.2 50.2 0.02 0 0 1 4 4 0.2 0.2 0.9 1.1 1 1 0 0.5 -0.002 0.002 0.5 0.5 0.25 4 prot_PV116418 support_PV116418 ;
INJEC IBG22r PV116511 116511 0 0 0.00667 0.00000 0.05 0.03 Iprate_PV116511 Tg_PV116511 0.01 0.3 1.5 0.7 1.1 tau_PV116511 0.5 0.9 0.3 0.5 47 51.5 50.2 0.2 50.2 0.02 0 0 1 4 4 0.2 0.2 0.9 1.1 1 1 0 0.5 -0.002 0.002 0.5 0.5 0.25 4 prot_PV116511 support_PV116511 ;
INJEC IBG22r PV116515 116515 0 0 0.01667 0.00000 0.05 0.03 Iprate_PV116515 Tg_PV116515 0.01 0.3 1.5 0.7 1.1 tau_PV116515 0.5 0.9 0.3 0.5 47 51.5 50.2 0.2 50.2 0.02 0 0 1 4 4 0.2 0.2 0.9 1.1 1 1 0 0.5 -0.002 0.002 0.5 0.5 0.25 4 prot_PV116515 support_PV116515 ;
INJEC IBG22r PV116516 116516 0 0 0.00533 0.00000 0.05 0.03 Iprate_PV116516 Tg_PV116516 0.01 0.3 1.5 0.7 1.1 tau_PV116516 0.5 0.9 0.3 0.5 47 51.5 50.2 0.2 50.2 0.02 0 0 1 4 4 0.2 0.2 0.9 1.1 1 1 0 0.5 -0.002 0.002 0.5 0.5 0.25 4 prot_PV116516 support_PV116516 ;
INJEC IBG22r PV116517 116517 0 0 0.01333 0.00000 0.05 0.03 Iprate_PV116517 Tg_PV116517 0.01 0.3 1.5 0.7 1.1 tau_PV116517 0.5 0.9 0.3 0.5 47 51.5 50.2 0.2 50.2 0.02 0 0 1 4 4 0.2 0.2 0.9 1.1 1 1 0 0.5 -0.002 0.002 0.5 0.5 0.25 4 prot_PV116517 support_PV116517 ;
INJEC IBG22r PV116518 116518 0 0 0.00800 0.00000 0.05 0.03 Iprate_PV116518 Tg_PV116518 0.01 0.3 1.5 0.7 1.1 tau_PV116518 0.5 0.9 0.3 0.5 47 51.5 50.2 0.2 50.2 0.02 0 0 1 4 4 0.2 0.2 0.9 1.1 1 1 0 0.5 -0.002 0.002 0.5 0.5 0.25 4 prot_PV116518 support_PV116518 ;
INJEC IBG22r PV116611 116611 0 0 0.00667 0.00000 0.05 0.03 Iprate_PV116611 Tg_PV116611 0.01 0.3 1.5 0.7 1.1 tau_PV116611 0.5 0.9 0.3 0.5 47 51.5 50.2 0.2 50.2 0.02 0 0 1 4 4 0.2 0.2 0.9 1.1 1 1 0 0.5 -0.002 0.002 0.5 0.5 0.25 4 prot_PV116611 support_PV116611 ;
INJEC IBG22r PV116615 116615 0 0 0.01667 0.00000 0.05 0.03 Iprate_PV116615 Tg_PV116615 0.01 0.3 1.5 0.7 1.1 tau_PV116615 0.5 0.9 0.3 0.5 47 51.5 50.2 0.2 50.2 0.02 0 0 1 4 4 0.2 0.2 0.9 1.1 1 1 0 0.5 -0.002 0.002 0.5 0.5 0.25 4 prot_PV116615 support_PV116615 ;
INJEC IBG22r PV116616 116616 0 0 0.00533 0.00000 0.05 0.03 Iprate_PV116616 Tg_PV116616 0.01 0.3 1.5 0.7 1.1 tau_PV116616 0.5 0.9 0.3 0.5 47 51.5 50.2 0.2 50.2 0.02 0 0 1 4 4 0.2 0.2 0.9 1.1 1 1 0 0.5 -0.002 0.002 0.5 0.5 0.25 4 prot_PV116616 support_PV116616 ;
INJEC IBG22r PV116617 116617 0 0 0.01333 0.00000 0.05 0.03 Iprate_PV116617 Tg_PV116617 0.01 0.3 1.5 0.7 1.1 tau_PV116617 0.5 0.9 0.3 0.5 47 51.5 50.2 0.2 50.2 0.02 0 0 1 4 4 0.2 0.2 0.9 1.1 1 1 0 0.5 -0.002 0.002 0.5 0.5 0.25 4 prot_PV116617 support_PV116617 ;
INJEC IBG22r PV116618 116618 0 0 0.00800 0.00000 0.05 0.03 Iprate_PV116618 Tg_PV116618 0.01 0.3 1.5 0.7 1.1 tau_PV116618 0.5 0.9 0.3 0.5 47 51.5 50.2 0.2 50.2 0.02 0 0 1 4 4 0.2 0.2 0.9 1.1 1 1 0 0.5 -0.002 0.002 0.5 0.5 0.25 4 prot_PV116618 support_PV116618 ;
INJEC IBG22r PV116711 116711 0 0 0.00667 0.00000 0.05 0.03 Iprate_PV116711 Tg_PV116711 0.01 0.3 1.5 0.7 1.1 tau_PV116711 0.5 0.9 0.3 0.5 47 51.5 50.2 0.2 50.2 0.02 0 0 1 4 4 0.2 0.2 0.9 1.1 1 1 0 0.5 -0.002 0.002 0.5 0.5 0.25 4 prot_PV116711 support_PV116711 ;
INJEC IBG22r PV116715 116715 0 0 0.01667 0.00000 0.05 0.03 Iprate_PV116715 Tg_PV116715 0.01 0.3 1.5 0.7 1.1 tau_PV116715 0.5 0.9 0.3 0.5 47 51.5 50.2 0.2 50.2 0.02 0 0 1 4 4 0.2 0.2 0.9 1.1 1 1 0 0.5 -0.002 0.002 0.5 0.5 0.25 4 prot_PV116715 support_PV116715 ;
INJEC IBG22r PV116716 116716 0 0 0.00533 0.00000 0.05 0.03 Iprate_PV116716 Tg_PV116716 0.01 0.3 1.5 0.7 1.1 tau_PV116716 0.5 0.9 0.3 0.5 47 51.5 50.2 0.2 50.2 0.02 0 0 1 4 4 0.2 0.2 0.9 1.1 1 1 0 0.5 -0.002 0.002 0.5 0.5 0.25 4 prot_PV116716 support_PV116716 ;
INJEC IBG22r PV116717 116717 0 0 0.01333 0.00000 0.05 0.03 Iprate_PV116717 Tg_PV116717 0.01 0.3 1.5 0.7 1.1 tau_PV116717 0.5 0.9 0.3 0.5 47 51.5 50.2 0.2 50.2 0.02 0 0 1 4 4 0.2 0.2 0.9 1.1 1 1 0 0.5 -0.002 0.002 0.5 0.5 0.25 4 prot_PV116717 support_PV116717 ;
INJEC IBG22r PV116718 116718 0 0 0.00800 0.00000 0.05 0.03 Iprate_PV116718 Tg_PV116718 0.01 0.3 1.5 0.7 1.1 tau_PV116718 0.5 0.9 0.3 0.5 47 51.5 50.2 0.2 50.2 0.02 0 0 1 4 4 0.2 0.2 0.9 1.1 1 1 0 0.5 -0.002 0.002 0.5 0.5 0.25 4 prot_PV116718 support_PV116718 ;
INJEC IBG22r PV116811 116811 0 0 0.00933 0.00000 0.05 0.03 Iprate_PV116811 Tg_PV116811 0.01 0.3 1.5 0.7 1.1 tau_PV116811 0.5 0.9 0.3 0.5 47 51.5 50.2 0.2 50.2 0.02 0 0 1 4 4 0.2 0.2 0.9 1.1 1 1 0 0.5 -0.002 0.002 0.5 0.5 0.25 4 prot_PV116811 support_PV116811 ;
INJEC IBG22r PV116815 116815 0 0 0.02333 0.00000 0.05 0.03 Iprate_PV116815 Tg_PV116815 0.01 0.3 1.5 0.7 1.1 tau_PV116815 0.5 0.9 0.3 0.5 47 51.5 50.2 0.2 50.2 0.02 0 0 1 4 4 0.2 0.2 0.9 1.1 1 1 0 0.5 -0.002 0.002 0.5 0.5 0.25 4 prot_PV116815 support_PV116815 ;
INJEC IBG22r PV116816 116816 0 0 0.00747 0.00000 0.05 0.03 Iprate_PV116816 Tg_PV116816 0.01 0.3 1.5 0.7 1.1 tau_PV116816 0.5 0.9 0.3 0.5 47 51.5 50.2 0.2 50.2 0.02 0 0 1 4 4 0.2 0.2 0.9 1.1 1 1 0 0.5 -0.002 0.002 0.5 0.5 0.25 4 prot_PV116816 support_PV116816 ;
INJEC IBG22r PV116817 116817 0 0 0.01867 0.00000 0.05 0.03 Iprate_PV116817 Tg_PV116817 0.01 0.3 1.5 0.7 1.1 tau_PV116817 0.5 0.9 0.3 0.5 47 51.5 50.2 0.2 50.2 0.02 0 0 1 4 4 0.2 0.2 0.9 1.1 1 1 0 0.5 -0.002 0.002 0.5 0.5 0.25 4 prot_PV116817 support_PV116817 ;
INJEC IBG22r PV116818 116818 0 0 0.01120 0.00000 0.05 0.03 Iprate_PV116818 Tg_PV116818 0.01 0.3 1.5 0.7 1.1 tau_PV116818 0.5 0.9 0.3 0.5 47 51.5 50.2 0.2 50.2 0.02 0 0 1 4 4 0.2 0.2 0.9 1.1 1 1 0 0.5 -0.002 0.002 0.5 0.5 0.25 4 prot_PV116818 support_PV116818 ;
INJEC IBG22r PV116911 116911 0 0 0.00933 0.00000 0.05 0.03 Iprate_PV116911 Tg_PV116911 0.01 0.3 1.5 0.7 1.1 tau_PV116911 0.5 0.9 0.3 0.5 47 51.5 50.2 0.2 50.2 0.02 0 0 1 4 4 0.2 0.2 0.9 1.1 1 1 0 0.5 -0.002 0.002 0.5 0.5 0.25 4 prot_PV116911 support_PV116911 ;
INJEC IBG22r PV116915 116915 0 0 0.02333 0.00000 0.05 0.03 Iprate_PV116915 Tg_PV116915 0.01 0.3 1.5 0.7 1.1 tau_PV116915 0.5 0.9 0.3 0.5 47 51.5 50.2 0.2 50.2 0.02 0 0 1 4 4 0.2 0.2 0.9 1.1 1 1 0 0.5 -0.002 0.002 0.5 0.5 0.25 4 prot_PV116915 support_PV116915 ;
INJEC IBG22r PV116916 116916 0 0 0.00747 0.00000 0.05 0.03 Iprate_PV116916 Tg_PV116916 0.01 0.3 1.5 0.7 1.1 tau_PV116916 0.5 0.9 0.3 0.5 47 51.5 50.2 0.2 50.2 0.02 0 0 1 4 4 0.2 0.2 0.9 1.1 1 1 0 0.5 -0.002 0.002 0.5 0.5 0.25 4 prot_PV116916 support_PV116916 ;
INJEC IBG22r PV116917 116917 0 0 0.01867 0.00000 0.05 0.03 Iprate_PV116917 Tg_PV116917 0.01 0.3 1.5 0.7 1.1 tau_PV116917 0.5 0.9 0.3 0.5 47 51.5 50.2 0.2 50.2 0.02 0 0 1 4 4 0.2 0.2 0.9 1.1 1 1 0 0.5 -0.002 0.002 0.5 0.5 0.25 4 prot_PV116917 support_PV116917 ;
INJEC IBG22r PV116918 116918 0 0 0.01120 0.00000 0.05 0.03 Iprate_PV116918 Tg_PV116918 0.01 0.3 1.5 0.7 1.1 tau_PV116918 0.5 0.9 0.3 0.5 47 51.5 50.2 0.2 50.2 0.02 0 0 1 4 4 0.2 0.2 0.9 1.1 1 1 0 0.5 -0.002 0.002 0.5 0.5 0.25 4 prot_PV116918 support_PV116918 ;
INJEC IBG22r PV117011 117011 0 0 0.00933 0.00000 0.05 0.03 Iprate_PV117011 Tg_PV117011 0.01 0.3 1.5 0.7 1.1 tau_PV117011 0.5 0.9 0.3 0.5 47 51.5 50.2 0.2 50.2 0.02 0 0 1 4 4 0.2 0.2 0.9 1.1 1 1 0 0.5 -0.002 0.002 0.5 0.5 0.25 4 prot_PV117011 support_PV117011 ;
INJEC IBG22r PV117015 117015 0 0 0.02333 0.00000 0.05 0.03 Iprate_PV117015 Tg_PV117015 0.01 0.3 1.5 0.7 1.1 tau_PV117015 0.5 0.9 0.3 0.5 47 51.5 50.2 0.2 50.2 0.02 0 0 1 4 4 0.2 0.2 0.9 1.1 1 1 0 0.5 -0.002 0.002 0.5 0.5 0.25 4 prot_PV117015 support_PV117015 ;
INJEC IBG22r PV117016 117016 0 0 0.00747 0.00000 0.05 0.03 Iprate_PV117016 Tg_PV117016 0.01 0.3 1.5 0.7 1.1 tau_PV117016 0.5 0.9 0.3 0.5 47 51.5 50.2 0.2 50.2 0.02 0 0 1 4 4 0.2 0.2 0.9 1.1 1 1 0 0.5 -0.002 0.002 0.5 0.5 0.25 4 prot_PV117016 support_PV117016 ;
INJEC IBG22r PV117017 117017 0 0 0.01867 0.00000 0.05 0.03 Iprate_PV117017 Tg_PV117017 0.01 0.3 1.5 0.7 1.1 tau_PV117017 0.5 0.9 0.3 0.5 47 51.5 50.2 0.2 50.2 0.02 0 0 1 4 4 0.2 0.2 0.9 1.1 1 1 0 0.5 -0.002 0.002 0.5 0.5 0.25 4 prot_PV117017 support_PV117017 ;
INJEC IBG22r PV117018 117018 0 0 0.01120 0.00000 0.05 0.03 Iprate_PV117018 Tg_PV117018 0.01 0.3 1.5 0.7 1.1 tau_PV117018 0.5 0.9 0.3 0.5 47 51.5 50.2 0.2 50.2 0.02 0 0 1 4 4 0.2 0.2 0.9 1.1 1 1 0 0.5 -0.002 0.002 0.5 0.5 0.25 4 prot_PV117018 support_PV117018 ;
INJEC IBG22r PV117111 117111 0 0 0.00933 0.00000 0.05 0.03 Iprate_PV117111 Tg_PV117111 0.01 0.3 1.5 0.7 1.1 tau_PV117111 0.5 0.9 0.3 0.5 47 51.5 50.2 0.2 50.2 0.02 0 0 1 4 4 0.2 0.2 0.9 1.1 1 1 0 0.5 -0.002 0.002 0.5 0.5 0.25 4 prot_PV117111 support_PV117111 ;
INJEC IBG22r PV117115 117115 0 0 0.02333 0.00000 0.05 0.03 Iprate_PV117115 Tg_PV117115 0.01 0.3 1.5 0.7 1.1 tau_PV117115 0.5 0.9 0.3 0.5 47 51.5 50.2 0.2 50.2 0.02 0 0 1 4 4 0.2 0.2 0.9 1.1 1 1 0 0.5 -0.002 0.002 0.5 0.5 0.25 4 prot_PV117115 support_PV117115 ;
INJEC IBG22r PV117116 117116 0 0 0.00747 0.00000 0.05 0.03 Iprate_PV117116 Tg_PV117116 0.01 0.3 1.5 0.7 1.1 tau_PV117116 0.5 0.9 0.3 0.5 47 51.5 50.2 0.2 50.2 0.02 0 0 1 4 4 0.2 0.2 0.9 1.1 1 1 0 0.5 -0.002 0.002 0.5 0.5 0.25 4 prot_PV117116 support_PV117116 ;
INJEC IBG22r PV117117 117117 0 0 0.01867 0.00000 0.05 0.03 Iprate_PV117117 Tg_PV117117 0.01 0.3 1.5 0.7 1.1 tau_PV117117 0.5 0.9 0.3 0.5 47 51.5 50.2 0.2 50.2 0.02 0 0 1 4 4 0.2 0.2 0.9 1.1 1 1 0 0.5 -0.002 0.002 0.5 0.5 0.25 4 prot_PV117117 support_PV117117 ;
INJEC IBG22r PV117118 117118 0 0 0.01120 0.00000 0.05 0.03 Iprate_PV117118 Tg_PV117118 0.01 0.3 1.5 0.7 1.1 tau_PV117118 0.5 0.9 0.3 0.5 47 51.5 50.2 0.2 50.2 0.02 0 0 1 4 4 0.2 0.2 0.9 1.1 1 1 0 0.5 -0.002 0.002 0.5 0.5 0.25 4 prot_PV117118 support_PV117118 ;
INJEC IBG22r PV117211 117211 0 0 0.00933 0.00000 0.05 0.03 Iprate_PV117211 Tg_PV117211 0.01 0.3 1.5 0.7 1.1 tau_PV117211 0.5 0.9 0.3 0.5 47 51.5 50.2 0.2 50.2 0.02 0 0 1 4 4 0.2 0.2 0.9 1.1 1 1 0 0.5 -0.002 0.002 0.5 0.5 0.25 4 prot_PV117211 support_PV117211 ;
INJEC IBG22r PV117215 117215 0 0 0.02333 0.00000 0.05 0.03 Iprate_PV117215 Tg_PV117215 0.01 0.3 1.5 0.7 1.1 tau_PV117215 0.5 0.9 0.3 0.5 47 51.5 50.2 0.2 50.2 0.02 0 0 1 4 4 0.2 0.2 0.9 1.1 1 1 0 0.5 -0.002 0.002 0.5 0.5 0.25 4 prot_PV117215 support_PV117215 ;
INJEC IBG22r PV117216 117216 0 0 0.00747 0.00000 0.05 0.03 Iprate_PV117216 Tg_PV117216 0.01 0.3 1.5 0.7 1.1 tau_PV117216 0.5 0.9 0.3 0.5 47 51.5 50.2 0.2 50.2 0.02 0 0 1 4 4 0.2 0.2 0.9 1.1 1 1 0 0.5 -0.002 0.002 0.5 0.5 0.25 4 prot_PV117216 support_PV117216 ;
INJEC IBG22r PV117217 117217 0 0 0.01867 0.00000 0.05 0.03 Iprate_PV117217 Tg_PV117217 0.01 0.3 1.5 0.7 1.1 tau_PV117217 0.5 0.9 0.3 0.5 47 51.5 50.2 0.2 50.2 0.02 0 0 1 4 4 0.2 0.2 0.9 1.1 1 1 0 0.5 -0.002 0.002 0.5 0.5 0.25 4 prot_PV117217 support_PV117217 ;
INJEC IBG22r PV117218 117218 0 0 0.01120 0.00000 0.05 0.03 Iprate_PV117218 Tg_PV117218 0.01 0.3 1.5 0.7 1.1 tau_PV117218 0.5 0.9 0.3 0.5 47 51.5 50.2 0.2 50.2 0.02 0 0 1 4 4 0.2 0.2 0.9 1.1 1 1 0 0.5 -0.002 0.002 0.5 0.5 0.25 4 prot_PV117218 support_PV117218 ;
INJEC IBG22r PV117311 117311 0 0 0.00933 0.00000 0.05 0.03 Iprate_PV117311 Tg_PV117311 0.01 0.3 1.5 0.7 1.1 tau_PV117311 0.5 0.9 0.3 0.5 47 51.5 50.2 0.2 50.2 0.02 0 0 1 4 4 0.2 0.2 0.9 1.1 1 1 0 0.5 -0.002 0.002 0.5 0.5 0.25 4 prot_PV117311 support_PV117311 ;
INJEC IBG22r PV117315 117315 0 0 0.02333 0.00000 0.05 0.03 Iprate_PV117315 Tg_PV117315 0.01 0.3 1.5 0.7 1.1 tau_PV117315 0.5 0.9 0.3 0.5 47 51.5 50.2 0.2 50.2 0.02 0 0 1 4 4 0.2 0.2 0.9 1.1 1 1 0 0.5 -0.002 0.002 0.5 0.5 0.25 4 prot_PV117315 support_PV117315 ;
INJEC IBG22r PV117316 117316 0 0 0.00747 0.00000 0.05 0.03 Iprate_PV117316 Tg_PV117316 0.01 0.3 1.5 0.7 1.1 tau_PV117316 0.5 0.9 0.3 0.5 47 51.5 50.2 0.2 50.2 0.02 0 0 1 4 4 0.2 0.2 0.9 1.1 1 1 0 0.5 -0.002 0.002 0.5 0.5 0.25 4 prot_PV117316 support_PV117316 ;
INJEC IBG22r PV117317 117317 0 0 0.01867 0.00000 0.05 0.03 Iprate_PV117317 Tg_PV117317 0.01 0.3 1.5 0.7 1.1 tau_PV117317 0.5 0.9 0.3 0.5 47 51.5 50.2 0.2 50.2 0.02 0 0 1 4 4 0.2 0.2 0.9 1.1 1 1 0 0.5 -0.002 0.002 0.5 0.5 0.25 4 prot_PV117317 support_PV117317 ;
INJEC IBG22r PV117318 117318 0 0 0.01120 0.00000 0.05 0.03 Iprate_PV117318 Tg_PV117318 0.01 0.3 1.5 0.7 1.1 tau_PV117318 0.5 0.9 0.3 0.5 47 51.5 50.2 0.2 50.2 0.02 0 0 1 4 4 0.2 0.2 0.9 1.1 1 1 0 0.5 -0.002 0.002 0.5 0.5 0.25 4 prot_PV117318 support_PV117318 ;
INJEC IBG22r PV117411 117411 0 0 0.00933 0.00000 0.05 0.03 Iprate_PV117411 Tg_PV117411 0.01 0.3 1.5 0.7 1.1 tau_PV117411 0.5 0.9 0.3 0.5 47 51.5 50.2 0.2 50.2 0.02 0 0 1 4 4 0.2 0.2 0.9 1.1 1 1 0 0.5 -0.002 0.002 0.5 0.5 0.25 4 prot_PV117411 support_PV117411 ;
INJEC IBG22r PV117415 117415 0 0 0.02333 0.00000 0.05 0.03 Iprate_PV117415 Tg_PV117415 0.01 0.3 1.5 0.7 1.1 tau_PV117415 0.5 0.9 0.3 0.5 47 51.5 50.2 0.2 50.2 0.02 0 0 1 4 4 0.2 0.2 0.9 1.1 1 1 0 0.5 -0.002 0.002 0.5 0.5 0.25 4 prot_PV117415 support_PV117415 ;
INJEC IBG22r PV117416 117416 0 0 0.00747 0.00000 0.05 0.03 Iprate_PV117416 Tg_PV117416 0.01 0.3 1.5 0.7 1.1 tau_PV117416 0.5 0.9 0.3 0.5 47 51.5 50.2 0.2 50.2 0.02 0 0 1 4 4 0.2 0.2 0.9 1.1 1 1 0 0.5 -0.002 0.002 0.5 0.5 0.25 4 prot_PV117416 support_PV117416 ;
INJEC IBG22r PV117417 117417 0 0 0.01867 0.00000 0.05 0.03 Iprate_PV117417 Tg_PV117417 0.01 0.3 1.5 0.7 1.1 tau_PV117417 0.5 0.9 0.3 0.5 47 51.5 50.2 0.2 50.2 0.02 0 0 1 4 4 0.2 0.2 0.9 1.1 1 1 0 0.5 -0.002 0.002 0.5 0.5 0.25 4 prot_PV117417 support_PV117417 ;
INJEC IBG22r PV117418 117418 0 0 0.01120 0.00000 0.05 0.03 Iprate_PV117418 Tg_PV117418 0.01 0.3 1.5 0.7 1.1 tau_PV117418 0.5 0.9 0.3 0.5 47 51.5 50.2 0.2 50.2 0.02 0 0 1 4 4 0.2 0.2 0.9 1.1 1 1 0 0.5 -0.002 0.002 0.5 0.5 0.25 4 prot_PV117418 support_PV117418 ;
INJEC IBG22r PV117511 117511 0 0 0.00933 0.00000 0.05 0.03 Iprate_PV117511 Tg_PV117511 0.01 0.3 1.5 0.7 1.1 tau_PV117511 0.5 0.9 0.3 0.5 47 51.5 50.2 0.2 50.2 0.02 0 0 1 4 4 0.2 0.2 0.9 1.1 1 1 0 0.5 -0.002 0.002 0.5 0.5 0.25 4 prot_PV117511 support_PV117511 ;
INJEC IBG22r PV117515 117515 0 0 0.02333 0.00000 0.05 0.03 Iprate_PV117515 Tg_PV117515 0.01 0.3 1.5 0.7 1.1 tau_PV117515 0.5 0.9 0.3 0.5 47 51.5 50.2 0.2 50.2 0.02 0 0 1 4 4 0.2 0.2 0.9 1.1 1 1 0 0.5 -0.002 0.002 0.5 0.5 0.25 4 prot_PV117515 support_PV117515 ;
INJEC IBG22r PV117516 117516 0 0 0.00747 0.00000 0.05 0.03 Iprate_PV117516 Tg_PV117516 0.01 0.3 1.5 0.7 1.1 tau_PV117516 0.5 0.9 0.3 0.5 47 51.5 50.2 0.2 50.2 0.02 0 0 1 4 4 0.2 0.2 0.9 1.1 1 1 0 0.5 -0.002 0.002 0.5 0.5 0.25 4 prot_PV117516 support_PV117516 ;
INJEC IBG22r PV117517 117517 0 0 0.01867 0.00000 0.05 0.03 Iprate_PV117517 Tg_PV117517 0.01 0.3 1.5 0.7 1.1 tau_PV117517 0.5 0.9 0.3 0.5 47 51.5 50.2 0.2 50.2 0.02 0 0 1 4 4 0.2 0.2 0.9 1.1 1 1 0 0.5 -0.002 0.002 0.5 0.5 0.25 4 prot_PV117517 support_PV117517 ;
INJEC IBG22r PV117518 117518 0 0 0.01120 0.00000 0.05 0.03 Iprate_PV117518 Tg_PV117518 0.01 0.3 1.5 0.7 1.1 tau_PV117518 0.5 0.9 0.3 0.5 47 51.5 50.2 0.2 50.2 0.02 0 0 1 4 4 0.2 0.2 0.9 1.1 1 1 0 0.5 -0.002 0.002 0.5 0.5 0.25 4 prot_PV117518 support_PV117518 ;
